lab3/final/toSubmit/bench.vcd
$date
  Tue May 01 20:55:12 2018
$end
$version
  GHDL v0
$end
$timescale
  1 fs
$end
$var reg 8 ! op[7:0] $end
$var reg 8 " data[7:0] $end
$var reg 1 # en $end
$var reg 1 $ clock $end
$scope module c1 $end
$var reg 8 % opcode[7:0] $end
$var reg 8 & dataout[7:0] $end
$var reg 1 ' dispen $end
$var reg 1 ( clk $end
$var reg 1 ) clksig $end
$var reg 7 * controlsig[6:0] $end
$var reg 1 + cregmem $end
$var reg 1 , ctwosum $end
$var reg 1 - cimmmux $end
$var reg 1 . ccompmux $end
$var reg 1 / cdispen $end
$var reg 1 0 cskipmux $end
$var reg 1 1 clodmux $end
$var reg 8 2 regdatasigone[7:0] $end
$var reg 8 3 regdatasigtwo[7:0] $end
$var reg 8 4 twoscompsig[7:0] $end
$var reg 8 5 regselmuxsig[7:0] $end
$var reg 1 6 skipmuxsig[0:0] $end
$var reg 1 7 compmuxsig[0:0] $end
$var reg 8 8 immmuxsig[7:0] $end
$var reg 8 9 lodmuxsig[7:0] $end
$var reg 8 : twosmuxsig[7:0] $end
$var reg 8 ; alusig[7:0] $end
$var reg 1 < skipshifttocontrolsig $end
$var reg 1 = zerosig[0:0] $end
$var reg 8 > signextendsig[7:0] $end
$var reg 1 ? op0 $end
$var reg 1 @ op1 $end
$var reg 1 A op6 $end
$var reg 1 B op7 $end
$var reg 2 C r1[1:0] $end
$var reg 2 D r2[1:0] $end
$var reg 2 E rd[1:0] $end
$var reg 4 F imm[3:0] $end
$var reg 8 G doutsig[7:0] $end
$scope module controlmain $end
$var reg 1 H op_0 $end
$var reg 1 I op_1 $end
$var reg 1 J skip $end
$var reg 1 K op_6 $end
$var reg 1 L op_7 $end
$var reg 1 M write_en $end
$var reg 1 N two_en $end
$var reg 1 O imm_en $end
$var reg 1 P cmp_en $end
$var reg 1 Q disp_en $end
$var reg 1 R skp_pass $end
$var reg 1 S lod $end
$upscope $end
$scope module regselmux $end
$var reg 8 T in1[7:0] $end
$var reg 8 U in2[7:0] $end
$var reg 8 V out1[7:0] $end
$var reg 1 W sel $end
$upscope $end
$scope module skipmux $end
$var reg 1 X in1[0:0] $end
$var reg 1 Y in2[0:0] $end
$var reg 1 Z out1[0:0] $end
$var reg 1 [ sel $end
$upscope $end
$scope module compmux $end
$var reg 1 \ in1[0:0] $end
$var reg 1 ] in2[0:0] $end
$var reg 1 ^ out1[0:0] $end
$var reg 1 _ sel $end
$upscope $end
$scope module immmux $end
$var reg 8 ` in1[7:0] $end
$var reg 8 a in2[7:0] $end
$var reg 8 b out1[7:0] $end
$var reg 1 c sel $end
$upscope $end
$scope module lodmux $end
$var reg 8 d in1[7:0] $end
$var reg 8 e in2[7:0] $end
$var reg 8 f out1[7:0] $end
$var reg 1 g sel $end
$upscope $end
$scope module twosmux $end
$var reg 8 h in1[7:0] $end
$var reg 8 i in2[7:0] $end
$var reg 8 j out1[7:0] $end
$var reg 1 k sel $end
$upscope $end
$scope module twoscomp $end
$var reg 8 l input[7:0] $end
$var reg 8 m output[7:0] $end
$var reg 8 n fliptoadd[7:0] $end
$var reg 8 o one[7:0] $end
$scope module inst_flip $end
$var reg 8 p in1[7:0] $end
$var reg 8 q out1[7:0] $end
$upscope $end
$scope module inst_adder $end
$var reg 8 r a[7:0] $end
$var reg 8 s b[7:0] $end
$var reg 1 t cin $end
$var reg 8 u sum[7:0] $end
$var reg 1 v carryout $end
$var reg 1 w underflow $end
$var reg 8 x prop[7:0] $end
$var reg 8 y gen[7:0] $end
$var reg 8 z c_int[7:0] $end
$var reg 1 { slicesevensumout $end
$scope module inst_cla_slice0 $end
$var reg 1 | a $end
$var reg 1 } b $end
$var reg 1 !" cin $end
$var reg 1 "" p $end
$var reg 1 #" g $end
$var reg 1 $" sum_out $end
$upscope $end
$scope module inst_cla_slice1 $end
$var reg 1 %" a $end
$var reg 1 &" b $end
$var reg 1 '" cin $end
$var reg 1 (" p $end
$var reg 1 )" g $end
$var reg 1 *" sum_out $end
$upscope $end
$scope module inst_cla_slice2 $end
$var reg 1 +" a $end
$var reg 1 ," b $end
$var reg 1 -" cin $end
$var reg 1 ." p $end
$var reg 1 /" g $end
$var reg 1 0" sum_out $end
$upscope $end
$scope module inst_cla_slice3 $end
$var reg 1 1" a $end
$var reg 1 2" b $end
$var reg 1 3" cin $end
$var reg 1 4" p $end
$var reg 1 5" g $end
$var reg 1 6" sum_out $end
$upscope $end
$scope module inst_cla_slice4 $end
$var reg 1 7" a $end
$var reg 1 8" b $end
$var reg 1 9" cin $end
$var reg 1 :" p $end
$var reg 1 ;" g $end
$var reg 1 <" sum_out $end
$upscope $end
$scope module inst_cla_slice5 $end
$var reg 1 =" a $end
$var reg 1 >" b $end
$var reg 1 ?" cin $end
$var reg 1 @" p $end
$var reg 1 A" g $end
$var reg 1 B" sum_out $end
$upscope $end
$scope module inst_cla_slice6 $end
$var reg 1 C" a $end
$var reg 1 D" b $end
$var reg 1 E" cin $end
$var reg 1 F" p $end
$var reg 1 G" g $end
$var reg 1 H" sum_out $end
$upscope $end
$scope module inst_cla_slice7 $end
$var reg 1 I" a $end
$var reg 1 J" b $end
$var reg 1 K" cin $end
$var reg 1 L" p $end
$var reg 1 M" g $end
$var reg 1 N" sum_out $end
$upscope $end
$scope module inst_cla_block $end
$var reg 8 O" p[7:0] $end
$var reg 8 P" g[7:0] $end
$var reg 8 Q" cout[7:0] $end
$var reg 8 R" cint[7:0] $end
$upscope $end
$scope module inst_uf $end
$var reg 1 S" signa $end
$var reg 1 T" signb $end
$var reg 1 U" signr $end
$var reg 1 V" uf $end
$upscope $end
$upscope $end
$upscope $end
$scope module regmem0 $end
$var reg 2 W" reg1[1:0] $end
$var reg 2 X" reg2[1:0] $end
$var reg 2 Y" dstreg[1:0] $end
$var reg 1 Z" writeen $end
$var reg 8 [" writedata[7:0] $end
$var reg 1 \" clock $end
$var reg 8 ]" reg1data[7:0] $end
$var reg 8 ^" reg2data[7:0] $end
$var reg 8 _" rddata[7:0] $end
$var reg 8 `" r0[7:0] $end
$var reg 8 a" r1[7:0] $end
$var reg 8 b" r2[7:0] $end
$var reg 8 c" r3[7:0] $end
$upscope $end
$scope module alu $end
$var reg 8 d" a[7:0] $end
$var reg 8 e" b[7:0] $end
$var reg 1 f" cin $end
$var reg 8 g" sum[7:0] $end
$var reg 1 h" carryout $end
$var reg 1 i" underflow $end
$var reg 8 j" prop[7:0] $end
$var reg 8 k" gen[7:0] $end
$var reg 8 l" c_int[7:0] $end
$var reg 1 m" slicesevensumout $end
$scope module inst_cla_slice0 $end
$var reg 1 n" a $end
$var reg 1 o" b $end
$var reg 1 p" cin $end
$var reg 1 q" p $end
$var reg 1 r" g $end
$var reg 1 s" sum_out $end
$upscope $end
$scope module inst_cla_slice1 $end
$var reg 1 t" a $end
$var reg 1 u" b $end
$var reg 1 v" cin $end
$var reg 1 w" p $end
$var reg 1 x" g $end
$var reg 1 y" sum_out $end
$upscope $end
$scope module inst_cla_slice2 $end
$var reg 1 z" a $end
$var reg 1 {" b $end
$var reg 1 |" cin $end
$var reg 1 }" p $end
$var reg 1 !# g $end
$var reg 1 "# sum_out $end
$upscope $end
$scope module inst_cla_slice3 $end
$var reg 1 ## a $end
$var reg 1 $# b $end
$var reg 1 %# cin $end
$var reg 1 &# p $end
$var reg 1 '# g $end
$var reg 1 (# sum_out $end
$upscope $end
$scope module inst_cla_slice4 $end
$var reg 1 )# a $end
$var reg 1 *# b $end
$var reg 1 +# cin $end
$var reg 1 ,# p $end
$var reg 1 -# g $end
$var reg 1 .# sum_out $end
$upscope $end
$scope module inst_cla_slice5 $end
$var reg 1 /# a $end
$var reg 1 0# b $end
$var reg 1 1# cin $end
$var reg 1 2# p $end
$var reg 1 3# g $end
$var reg 1 4# sum_out $end
$upscope $end
$scope module inst_cla_slice6 $end
$var reg 1 5# a $end
$var reg 1 6# b $end
$var reg 1 7# cin $end
$var reg 1 8# p $end
$var reg 1 9# g $end
$var reg 1 :# sum_out $end
$upscope $end
$scope module inst_cla_slice7 $end
$var reg 1 ;# a $end
$var reg 1 <# b $end
$var reg 1 =# cin $end
$var reg 1 ># p $end
$var reg 1 ?# g $end
$var reg 1 @# sum_out $end
$upscope $end
$scope module inst_cla_block $end
$var reg 8 A# p[7:0] $end
$var reg 8 B# g[7:0] $end
$var reg 8 C# cout[7:0] $end
$var reg 8 D# cint[7:0] $end
$upscope $end
$scope module inst_uf $end
$var reg 1 E# signa $end
$var reg 1 F# signb $end
$var reg 1 G# signr $end
$var reg 1 H# uf $end
$upscope $end
$upscope $end
$scope module zerocheck0 $end
$upscope $end
$scope module sreg0 $end
$var reg 1 I# i_shift_in $end
$var reg 1 J# sel[0:0] $end
$var reg 1 K# clock $end
$var reg 1 L# o $end
$var reg 2 M# storage[1:0] $end
$upscope $end
$scope module signext $end
$var reg 4 N# input[3:0] $end
$var reg 8 O# output[7:0] $end
$upscope $end
$upscope $end
$enddefinitions $end
#0
b00000111 !
b00000000 "
U#
0$
b00000111 %
b00000000 &
U'
0(
0)
bUUUUUUU *
U+
U,
U-
U.
U/
00
U1
b00000000 2
b00000000 3
b00000000 4
b00000000 5
b0 6
b0 7
b00000000 8
b00000000 9
b00000000 :
b00000000 ;
0<
bU =
bUUUUUUUU >
U?
U@
UA
UB
bUU C
bUU D
bUU E
bUUUU F
b00000000 G
UH
UI
0J
UK
UL
UM
UN
UO
UP
UQ
0R
US
b00000000 T
b00000000 U
b00000000 V
UW
b0 X
b0 Y
b0 Z
0[
bU \
b0 ]
b0 ^
U_
bUUUUUUUU `
b00000000 a
b00000000 b
Uc
b00000000 d
b00000000 e
b00000000 f
Ug
b00000000 h
b00000000 i
b00000000 j
Uk
b00000000 l
b00000000 m
b11111111 n
b00000001 o
b00000000 p
b11111111 q
b11111111 r
b00000001 s
0t
b00000000 u
1v
0w
b11111110 x
b00000001 y
b11111111 z
0{
1|
1}
0!"
0""
1#"
0$"
1%"
0&"
1'"
1("
0)"
0*"
1+"
0,"
1-"
1."
0/"
00"
11"
02"
13"
14"
05"
06"
17"
08"
19"
1:"
0;"
0<"
1="
0>"
1?"
1@"
0A"
0B"
1C"
0D"
1E"
1F"
0G"
0H"
1I"
0J"
1K"
1L"
0M"
0N"
b11111110 O"
b00000001 P"
b11111111 Q"
b11111111 R"
1S"
0T"
0U"
0V"
bUU W"
bUU X"
bUU Y"
UZ"
b00000000 ["
0\"
b00000000 ]"
b00000000 ^"
b00000000 _"
b00000000 `"
b00000000 a"
b00000000 b"
b00000000 c"
b00000000 d"
b00000000 e"
0f"
b00000000 g"
0h"
0i"
b00000000 j"
b00000000 k"
b00000000 l"
0m"
0n"
0o"
0p"
0q"
0r"
0s"
0t"
0u"
0v"
0w"
0x"
0y"
0z"
0{"
0|"
0}"
0!#
0"#
0##
0$#
0%#
0&#
0'#
0(#
0)#
0*#
0+#
0,#
0-#
0.#
0/#
00#
01#
02#
03#
04#
05#
06#
07#
08#
09#
0:#
0;#
0<#
0=#
0>#
0?#
0@#
b00000000 A#
b00000000 B#
b00000000 C#
b00000000 D#
0E#
0F#
0G#
0H#
UI#
b0 J#
0K#
0L#
b00 M#
bUUUU N#
bUUUUUUUU O#
#1000000
0#
1$
0'
1(
1)
1+
1,
0-
1.
0/
01
b00000111 8
b00000111 ;
b00000111 >
1?
1@
0A
0B
b01 C
b11 D
b00 E
b0111 F
1H
1I
0K
0L
1M
1N
0O
1P
0Q
0S
1W
1_
b00000111 `
b00000111 b
0c
0g
1k
b01 W"
b11 X"
b00 Y"
1Z"
b00000111 ["
1\"
b00000111 e"
b00000111 g"
b00000111 j"
1o"
1q"
1s"
1u"
1w"
1y"
1{"
1}"
1"#
b00000111 A#
1I#
1K#
b0111 N#
b00000111 O#
#2000000
b00010110 !
b00000111 "
0$
b00010110 %
b00000111 &
0(
0)
b00000111 G
b00000111 T
0\"
b00000111 _"
b00000111 `"
0K#
#3000000
b00000000 "
1$
b00000000 &
1(
1)
b00000110 8
b00000110 ;
b00000110 >
0?
b10 D
b01 E
b0110 F
b00000000 G
0H
b00000000 T
b00000110 `
b00000110 b
b10 X"
b01 Y"
b00000110 ["
1\"
b00000000 _"
b00000110 e"
b00000110 g"
b00000110 j"
0o"
0q"
0s"
b00000110 A#
1K#
b0110 N#
b00000110 O#
#4000000
b01100001 !
b00000110 "
0$
b01100001 %
b00000110 &
0(
0)
b00000110 G
b00000110 T
0\"
b00000110 _"
b00000110 a"
0K#
#5000000
b00000000 "
1$
b00000000 &
1(
1)
1-
11
b00000111 2
b00000110 3
b11111010 4
b00000110 5
b00000110 8
b00000111 9
b00000110 :
b00001101 ;
b00000001 >
1?
0@
1A
b00 C
b01 D
b10 E
b0001 F
b00000000 G
1H
0I
1K
1O
1S
b00000000 T
b00000110 U
b00000110 V
b00000001 `
b00000110 a
b00000110 b
1c
b00000111 e
b00000111 f
1g
b11111010 h
b00000110 i
b00000110 j
b00000110 l
b11111010 m
b11111001 n
b00000110 p
b11111001 q
b11111001 r
b11111010 u
0v
b11111000 x
b00000001 z
1{
0%"
0("
1*"
0+"
0-"
0."
00"
03"
16"
09"
1<"
0?"
1B"
0E"
1H"
0K"
1N"
b11111000 O"
b00000001 Q"
b00000001 R"
1U"
b00 W"
b01 X"
b10 Y"
b00001101 ["
1\"
b00000111 ]"
b00000110 ^"
b00000000 _"
b00000111 d"
b00000110 e"
b00001101 g"
b00000001 j"
b00000110 k"
b00000110 l"
1n"
1q"
1s"
1t"
1u"
0w"
1x"
0y"
1z"
1{"
1|"
0}"
1!#
1"#
1%#
1(#
b00000001 A#
b00000110 B#
b00000110 C#
b00000110 D#
0I#
1K#
b0001 N#
b00000001 O#
#6000000
b11100101 !
b00001101 "
0$
b11100101 %
b00001101 &
0(
0)
b00001101 G
b00001101 T
0\"
b00001101 _"
b00001101 b"
0K#
#7000000
1$
1(
1)
0+
0,
0.
b00000110 2
b11110011 4
b00001101 5
bU 6
bU 7
b11110011 8
b00000110 9
b11110011 :
b11111001 ;
b00000101 >
1B
b01 C
b0101 F
1L
0M
0N
0P
b00001101 V
0W
bU X
bU Z
bU ^
0_
b00000101 `
b11110011 a
b11110011 b
b00000110 e
b00000110 f
b11110011 h
b11110011 j
0k
b00001101 l
b11110011 m
b11110010 n
b00001101 p
b11110010 q
b11110010 r
b11110011 u
b11110011 x
b00000000 y
b00000000 z
0|
1""
0#"
1$"
1%"
0'"
1("
1*"
0-"
00"
01"
04"
06"
b11110011 O"
b00000000 P"
b00000000 Q"
b00000000 R"
b01 W"
0Z"
b11111001 ["
1\"
b00000110 ]"
b00000110 d"
b11110011 e"
b11111001 g"
0h"
b11110101 j"
b00000010 k"
b00000110 l"
1m"
0n"
1o"
1q"
1s"
1u"
0w"
1x"
0y"
0{"
1|"
1}"
0!#
0"#
0$#
1%#
0&#
1(#
1*#
0+#
1,#
1.#
10#
01#
12#
14#
16#
07#
18#
1:#
1<#
0=#
1>#
1@#
b11110101 A#
b00000010 B#
b00000110 C#
b00000110 D#
1F#
1G#
bU J#
1K#
b0101 N#
b00000101 O#
#8000000
b11000000 !
0$
b11000000 %
0(
0)
0\"
0K#
#9000000
b00000111 "
1#
1$
b00000111 &
1'
1(
1)
1,
1.
1/
b00000111 2
b00000111 3
b11111001 4
b00000111 5
b0 6
b0 7
b00000111 8
b00000111 9
b00000111 :
b00001110 ;
b00000000 >
0?
b00 C
b00 D
b00 E
b0000 F
b00000111 G
0H
1N
1P
1Q
b00000111 T
b00000111 U
b00000111 V
1W
b0 X
b0 Z
b0 ^
1_
b00000000 `
b00000111 a
b00000111 b
b00000111 e
b00000111 f
b11111001 h
b00000111 i
b00000111 j
1k
b00000111 l
b11111001 m
b11111000 n
b00000111 p
b11111000 q
b11111000 r
b11111001 u
b11111001 x
0%"
0("
0*"
11"
14"
16"
b11111001 O"
b00 W"
b00 X"
b00 Y"
b00001110 ["
1\"
b00000111 ]"
b00000111 ^"
b00000111 _"
b00000111 d"
b00000111 e"
b00001110 g"
b00000000 j"
b00000111 k"
b00000111 l"
0m"
1n"
0q"
1r"
0s"
1v"
1y"
1{"
0}"
1!#
1"#
0*#
0,#
0.#
00#
02#
04#
06#
08#
0:#
0<#
0>#
0@#
b00000000 A#
b00000111 B#
b00000111 C#
b00000111 D#
0F#
0G#
b0 J#
1K#
b0000 N#
b00000000 O#
#10000000
b11010000 !
0$
b11010000 %
0(
0)
0\"
0K#
#11000000
b00000110 "
1$
b00000110 &
1(
1)
b01 E
b00000110 G
b00000110 T
b01 Y"
1\"
b00000110 _"
1K#
#12000000
b00000000 !
0$
b00000000 %
0(
0)
0\"
0K#
#13000000
b00000111 "
0#
1$
b00000111 &
0'
1(
1)
1+
0-
0/
01
b00000000 8
b00000000 9
b00000000 ;
0A
0B
b00 E
b00000111 G
0K
0L
1M
0O
0Q
0S
b00000111 T
b00000000 b
0c
b00000000 f
0g
b00 Y"
1Z"
b00000000 ["
1\"
b00000111 _"
b00000000 d"
b00000000 e"
b00000000 g"
b00000000 k"
b00000000 l"
0n"
0o"
0r"
0t"
0u"
0v"
0x"
0y"
0z"
0{"
0|"
0!#
0"#
0%#
0(#
b00000000 B#
b00000000 C#
b00000000 D#
1K#
#14000000
b00010000 !
b00000000 "
0$
b00010000 %
b00000000 &
0(
0)
b00000000 G
b00000000 T
0\"
b00000000 _"
b00000000 `"
0K#
#15000000
b00000110 "
1$
b00000110 &
1(
1)
b00000000 2
b00000000 3
b00000000 4
b00000000 5
b00000000 :
b01 E
b00000110 G
b00000110 T
b00000000 U
b00000000 V
b00000000 a
b00000000 e
b00000000 h
b00000000 i
b00000000 j
b00000000 l
b00000000 m
b11111111 n
b00000000 p
b11111111 q
b11111111 r
b00000000 u
1v
b11111110 x
b00000001 y
b11111111 z
0{
1|
0""
1#"
0$"
1%"
1'"
1("
0*"
1+"
1-"
1."
00"
13"
06"
19"
0<"
1?"
0B"
1E"
0H"
1K"
0N"
b11111110 O"
b00000001 P"
b11111111 Q"
b11111111 R"
0U"
b01 Y"
1\"
b00000000 ]"
b00000000 ^"
b00000110 _"
1K#
#16000000
b11010000 !
b00000000 "
0$
b11010000 %
b00000000 &
0(
0)
b00000000 G
b00000000 T
0\"
b00000000 _"
b00000000 a"
0K#
#17000000
1#
1$
1'
1(
1)
0+
1-
1/
11
1A
1B
1K
1L
0M
1O
1Q
1S
1c
1g
0Z"
1\"
1K#
#18000000
b00100000 !
0$
b00100000 %
0(
0)
0\"
0K#
#19000000
b00001101 "
0#
1$
b00001101 &
0'
1(
1)
1+
0-
0/
01
0A
0B
b10 E
b00001101 G
0K
0L
1M
0O
0Q
0S
b00001101 T
0c
0g
b10 Y"
1Z"
1\"
b00001101 _"
1K#
#20000000
b11100000 !
b00000000 "
0$
b11100000 %
b00000000 &
0(
0)
b00000000 G
b00000000 T
0\"
b00000000 _"
b00000000 b"
0K#
#21000000
1#
1$
1'
1(
1)
0+
1-
1/
11
1A
1B
1K
1L
0M
1O
1Q
1S
1c
1g
0Z"
1\"
1K#
#22000000
b00110000 !
0$
b00110000 %
0(
0)
0\"
0K#
#23000000
0#
1$
0'
1(
1)
1+
0-
0/
01
0A
0B
b11 E
0K
0L
1M
0O
0Q
0S
0c
0g
b11 Y"
1Z"
1\"
1K#
#24000000
b11110000 !
0$
b11110000 %
0(
0)
0\"
0K#
#25000000
1#
1$
1'
1(
1)
0+
1-
1/
11
1A
1B
1K
1L
0M
1O
1Q
1S
1c
1g
0Z"
1\"
1K#
#26000000
b00100001 !
0$
b00100001 %
0(
0)
0\"
0K#
#27000000
0#
1$
0'
1(
1)
1+
0-
0/
01
b00000001 8
b00000001 ;
b00000001 >
1?
0A
0B
b01 D
b10 E
b0001 F
1H
0K
0L
1M
0O
0Q
0S
b00000001 `
b00000001 b
0c
0g
b01 X"
b10 Y"
1Z"
b00000001 ["
1\"
b00000001 e"
b00000001 g"
b00000001 j"
1o"
1q"
1s"
b00000001 A#
1K#
b0001 N#
b00000001 O#
#28000000
b00111111 !
b00000001 "
0$
b00111111 %
b00000001 &
0(
0)
b00000001 G
b00000001 T
0\"
b00000001 _"
b00000001 b"
0K#
#29000000
b00000000 "
1$
b00000000 &
1(
1)
b11111111 8
b11111111 ;
b11111111 >
1@
b11 C
b11 D
b11 E
b1111 F
b00000000 G
1I
b00000000 T
b11111111 `
b11111111 b
b11 W"
b11 X"
b11 Y"
b11111111 ["
1\"
b00000000 _"
b11111111 e"
b11111111 g"
b11111111 j"
1m"
1u"
1w"
1y"
1{"
1}"
1"#
1$#
1&#
1(#
1*#
1,#
1.#
10#
12#
14#
16#
18#
1:#
1<#
1>#
1@#
b11111111 A#
1F#
1G#
1I#
1K#
b1111 N#
b11111111 O#
#30000000
b11000101 !
b11111111 "
0$
b11000101 %
b11111111 &
0(
0)
b11111111 G
b11111111 T
0\"
b11111111 _"
b11111111 c"
0K#
#31000000
b00000000 "
1$
b00000000 &
1(
1)
0+
0,
1-
0.
11
bU 6
bU 7
b00000000 8
b00000000 ;
b00000101 >
0@
1A
1B
b01 C
b01 D
b00 E
b0101 F
b00000000 G
0I
1K
1L
0M
0N
1O
0P
1S
b00000000 T
0W
bU X
bU Z
bU ^
0_
b00000101 `
b00000000 b
1c
1g
0k
b01 W"
b01 X"
b00 Y"
0Z"
b00000000 ["
1\"
b00000000 _"
b00000000 e"
b00000000 g"
b00000000 j"
0m"
0o"
0q"
0s"
0u"
0w"
0y"
0{"
0}"
0"#
0$#
0&#
0(#
0*#
0,#
0.#
00#
02#
04#
06#
08#
0:#
0<#
0>#
0@#
b00000000 A#
0F#
0G#
0I#
bU J#
1K#
b0101 N#
b00000101 O#
#32000000
b11110000 !
0$
b11110000 %
0(
0)
0\"
0K#
#33000000
b11111111 "
1#
1$
b11111111 &
1'
1(
1)
1,
1.
1/
b0 6
b0 7
b00000000 >
0?
b00 C
b00 D
b11 E
b0000 F
b11111111 G
0H
1N
1P
1Q
b11111111 T
1W
b0 X
b0 Z
b0 ^
1_
b00000000 `
1k
b00 W"
b00 X"
b11 Y"
1\"
b11111111 _"
b0 J#
1K#
b0000 N#
b00000000 O#
#34000000
b11100000 !
0$
b11100000 %
0(
0)
0\"
0K#
#35000000
b00000001 "
1$
b00000001 &
1(
1)
b10 E
b00000001 G
b00000001 T
b10 Y"
1\"
b00000001 _"
1K#
#36000000
b11000110 !
0$
b11000110 %
0(
0)
0\"
0K#
#37000000
b00000000 "
0#
1$
b00000000 &
0'
1(
1)
0,
0.
0/
b00000001 3
bU 6
bU 7
b00000110 >
1@
b01 C
b10 D
b00 E
b0110 F
b00000000 G
1I
0N
0P
0Q
b00000000 T
b00000001 U
0W
bU X
bU Z
bU ^
0_
b00000110 `
b00000001 i
0k
b01 W"
b10 X"
b00 Y"
1\"
b00000001 ^"
b00000000 _"
1I#
bU J#
1K#
b0110 N#
b00000110 O#
#38000000
b11110000 !
0$
b11110000 %
0(
0)
0\"
0K#
#39000000
b11111111 "
1#
1$
b11111111 &
1'
1(
1)
1,
1.
1/
b00000000 3
b0 6
b0 7
b00000000 >
0@
b00 C
b00 D
b11 E
b0000 F
b11111111 G
0I
1N
1P
1Q
b11111111 T
b00000000 U
1W
b0 X
b0 Z
b0 ^
1_
b00000000 `
b00000000 i
1k
b00 W"
b00 X"
b11 Y"
1\"
b00000000 ^"
b11111111 _"
0I#
b0 J#
1K#
b0000 N#
b00000000 O#
#40000000
0$
0(
0)
0\"
0K#
#41000000
1$
1(
1)
1\"
1K#
#42000000
b11100000 !
0$
b11100000 %
0(
0)
0\"
0K#
#43000000
b00000001 "
1$
b00000001 &
1(
1)
b10 E
b00000001 G
b00000001 T
b10 Y"
1\"
b00000001 _"
1K#
#44000000
b11001010 !
0$
b11001010 %
0(
0)
0\"
0K#
#45000000
b00000000 "
0#
1$
b00000000 &
0'
1(
1)
0,
0.
0/
b00000001 2
b00000001 3
bU 6
bU 7
b00000001 9
b00000001 ;
b11111010 >
1@
b10 C
b10 D
b00 E
b1010 F
b00000000 G
1I
0N
0P
0Q
b00000000 T
b00000001 U
0W
bU X
bU Z
bU ^
0_
b11111010 `
b00000001 e
b00000001 f
b00000001 i
0k
b10 W"
b10 X"
b00 Y"
b00000001 ["
1\"
b00000001 ]"
b00000001 ^"
b00000000 _"
b00000001 d"
b00000001 g"
b00000001 j"
1n"
1q"
1s"
b00000001 A#
1I#
bU J#
1K#
b1010 N#
b11111010 O#
#46000000
b11111110 !
0$
b11111110 %
0(
0)
0\"
0K#
#47000000
b11111111 "
1$
b11111111 &
1(
1)
b11111111 2
b00000001 4
b11111111 5
b00000001 8
b11111111 9
b00000001 :
b00000000 ;
b11111110 >
b11 C
b11 E
b1110 F
b11111111 G
b11111111 T
b11111111 V
b11111110 `
b00000001 a
b00000001 b
b11111111 e
b11111111 f
b00000001 h
b00000001 j
b11111111 l
b00000001 m
b00000000 n
b11111111 p
b00000000 q
b00000000 r
b00000001 u
0v
b00000001 x
b00000000 y
b00000000 z
0{
0|
1""
0#"
1$"
0%"
0'"
0("
0*"
0+"
0-"
0."
00"
01"
03"
04"
06"
07"
09"
0:"
0<"
0="
0?"
0@"
0B"
0C"
0E"
0F"
0H"
0I"
0K"
0L"
0N"
b00000001 O"
b00000000 P"
b00000000 Q"
b00000000 R"
0S"
0U"
b11 W"
b11 Y"
b00000000 ["
1\"
b11111111 ]"
b11111111 _"
b11111111 d"
b00000001 e"
b00000000 g"
1h"
0i"
b11111110 j"
b00000001 k"
b11111111 l"
0m"
1o"
0q"
1r"
0s"
1t"
0u"
1v"
1w"
0x"
0y"
1z"
0{"
1|"
1}"
0!#
0"#
1##
0$#
1%#
1&#
0'#
0(#
1)#
0*#
1+#
1,#
0-#
0.#
1/#
00#
11#
12#
03#
04#
15#
06#
17#
18#
09#
0:#
1;#
0<#
1=#
1>#
0?#
0@#
b11111110 A#
b00000001 B#
b11111111 C#
b11111111 D#
1E#
0F#
0G#
0H#
1K#
b1110 N#
b11111110 O#
#48000000
b11100000 !
0$
b11100000 %
0(
0)
0\"
0K#
#49000000
b00000001 "
1#
1$
b00000001 &
1'
1(
1)
1,
1.
1/
b00000000 2
b00000000 3
b00000000 4
b00000000 5
b0 6
b0 7
b00000000 8
b00000000 9
b00000000 :
b00000000 ;
b00000000 >
0@
b00 C
b00 D
b10 E
b0000 F
b00000001 G
0I
1N
1P
1Q
b00000001 T
b00000000 U
b00000000 V
1W
b0 X
b0 Z
b0 ^
1_
b00000000 `
b00000000 a
b00000000 b
b00000000 e
b00000000 f
b00000000 h
b00000000 i
b00000000 j
1k
b00000000 l
b00000000 m
b11111111 n
b00000000 p
b11111111 q
b11111111 r
b00000000 u
1v
b11111110 x
b00000001 y
b11111111 z
0{
1|
0""
1#"
0$"
1%"
1'"
1("
0*"
1+"
1-"
1."
00"
11"
13"
14"
06"
17"
19"
1:"
0<"
1="
1?"
1@"
0B"
1C"
1E"
1F"
0H"
1I"
1K"
1L"
0N"
b11111110 O"
b00000001 P"
b11111111 Q"
b11111111 R"
1S"
0U"
b00 W"
b00 X"
b10 Y"
b00000000 ["
1\"
b00000000 ]"
b00000000 ^"
b00000001 _"
b00000000 d"
b00000000 e"
b00000000 g"
0h"
b00000000 j"
b00000000 k"
b00000000 l"
0m"
0n"
0o"
0q"
0r"
0s"
0t"
0v"
0w"
0y"
0z"
0|"
0}"
0"#
0##
0%#
0&#
0(#
0)#
0+#
0,#
0.#
0/#
01#
02#
04#
05#
07#
08#
0:#
0;#
0=#
0>#
0@#
b00000000 A#
b00000000 B#
b00000000 C#
b00000000 D#
0E#
0G#
0I#
b0 J#
1K#
b0000 N#
b00000000 O#
#50000000
b11110000 !
0$
b11110000 %
0(
0)
0\"
0K#
#51000000
b11111111 "
1$
b11111111 &
1(
1)
b11 E
b11111111 G
b11111111 T
b11 Y"
1\"
b11111111 _"
1K#
#52000000
b11100000 !
0$
b11100000 %
0(
0)
0\"
0K#
#53000000
b00000001 "
1$
b00000001 &
1(
1)
b10 E
b00000001 G
b00000001 T
b10 Y"
1\"
b00000001 _"
1K#
#54000000
b11001101 !
0$
b11001101 %
0(
0)
0\"
0K#
#55000000
b00000000 "
0#
1$
b00000000 &
0'
1(
1)
0,
0.
0/
b11111111 2
bU 6
bU 7
b11111111 9
b11111111 ;
b11111101 >
1?
b11 C
b01 D
b00 E
b1101 F
b00000000 G
1H
0N
0P
0Q
b00000000 T
0W
bU X
bU Z
bU ^
0_
b11111101 `
b11111111 e
b11111111 f
0k
b11 W"
b01 X"
b00 Y"
b11111111 ["
1\"
b11111111 ]"
b00000000 _"
b11111111 d"
b11111111 g"
b11111111 j"
1m"
1n"
1q"
1s"
1t"
1w"
1y"
1z"
1}"
1"#
1##
1&#
1(#
1)#
1,#
1.#
1/#
12#
14#
15#
18#
1:#
1;#
1>#
1@#
b11111111 A#
1E#
1G#
bU J#
1K#
b1101 N#
b11111101 O#
#56000000
b11000101 !
0$
b11000101 %
0(
0)
0\"
0K#
#57000000
1$
1(
1)
b00000000 2
b00000000 9
b00000000 ;
b00000101 >
b01 C
b0101 F
b00000101 `
b00000000 e
b00000000 f
b01 W"
b00000000 ["
1\"
b00000000 ]"
b00000000 d"
b00000000 g"
b00000000 j"
0m"
0n"
0q"
0s"
0t"
0w"
0y"
0z"
0}"
0"#
0##
0&#
0(#
0)#
0,#
0.#
0/#
02#
04#
05#
08#
0:#
0;#
0>#
0@#
b00000000 A#
0E#
0G#
1K#
b0101 N#
b00000101 O#
#58000000
b11110000 !
0$
b11110000 %
0(
0)
0\"
0K#
