lab4/add.vcd
$date
  Mon May 14 23:51:59 2018
$end
$version
  GHDL v0
$end
$timescale
  1 fs
$end
$var reg 8 ! op[7:0] $end
$var reg 8 " data[7:0] $end
$var reg 1 # en $end
$var reg 1 $ clock $end
$var reg 1 % bre $end
$var reg 1 & nop $end
$scope module c1 $end
$var reg 8 ' opcode[7:0] $end
$var reg 8 ( dataout[7:0] $end
$var reg 1 ) dispen $end
$var reg 1 * bre $end
$var reg 1 + nop $end
$var reg 1 , clk $end
$var reg 1 - clksig $end
$var reg 7 . controlsig[6:0] $end
$var reg 1 / cregmem $end
$var reg 1 0 ctwosum $end
$var reg 1 1 cimmmux $end
$var reg 1 2 ccompmux $end
$var reg 1 3 cdispen $end
$var reg 1 4 cskipmux $end
$var reg 1 5 clodmux $end
$var reg 8 6 regdatasigone[7:0] $end
$var reg 8 7 regdatasigtwo[7:0] $end
$var reg 8 8 twoscompsig[7:0] $end
$var reg 8 9 regselmuxsig[7:0] $end
$var reg 1 : skipmuxsig[0:0] $end
$var reg 1 ; compmuxsig[0:0] $end
$var reg 8 < immmuxsig[7:0] $end
$var reg 8 = lodmuxsig[7:0] $end
$var reg 8 > twosmuxsig[7:0] $end
$var reg 8 ? alusig[7:0] $end
$var reg 1 @ skipshifttocontrolsig $end
$var reg 1 A zerosig[0:0] $end
$var reg 8 B signextendsig[7:0] $end
$var reg 28 C isregidexein[27:0] $end
$var reg 9 D isregexewbin[8:0] $end
$var reg 28 E isregidexesigout[27:0] $end
$var reg 9 F isregexewbsigout[8:0] $end
$var reg 8 G isregidexesigdout[7:0] $end
$var reg 8 H isregidexesigone[7:0] $end
$var reg 8 I isregidexesigtwo[7:0] $end
$var reg 4 J isregidexesigimm[3:0] $end
$var reg 8 K isregexewbsigalu[7:0] $end
$var reg 1 L isregidexesigdzero[0:0] $end
$var reg 1 M notclk $end
$var reg 1 N op0 $end
$var reg 1 O op1 $end
$var reg 1 P op2 $end
$var reg 1 Q op3 $end
$var reg 1 R op4 $end
$var reg 1 S op5 $end
$var reg 1 T op6 $end
$var reg 1 U op7 $end
$var reg 2 V r1[1:0] $end
$var reg 2 W r2[1:0] $end
$var reg 2 X rd[1:0] $end
$var reg 4 Y imm[3:0] $end
$var reg 8 Z doutsig[7:0] $end
$var reg 1 [ aluselasig $end
$var reg 1 \ aluselbsig $end
$var reg 1 ] brecontrol $end
$var reg 8 ^ a[7:0] $end
$var reg 8 _ b[7:0] $end
$var reg 2 ` rdexewb[1:0] $end
$var reg 1 a nopen $end
$scope module controlmain $end
$var reg 1 b op_0 $end
$var reg 1 c op_1 $end
$var reg 1 d op_2 $end
$var reg 1 e op_3 $end
$var reg 1 f op_4 $end
$var reg 1 g op_5 $end
$var reg 1 h op_6 $end
$var reg 1 i op_7 $end
$var reg 1 j skip $end
$var reg 1 k clk $end
$var reg 1 l inp_1 $end
$var reg 1 m inp_2 $end
$var reg 1 n bre $end
$var reg 1 o nop $end
$var reg 1 p write_en $end
$var reg 1 q two_en $end
$var reg 1 r imm_en $end
$var reg 1 s cmp_en $end
$var reg 1 t disp_en $end
$var reg 1 u skp_pass $end
$var reg 1 v lod $end
$var reg 2 w rd[1:0] $end
$var reg 8 x idexeop[7:0] $end
$var reg 1 y idexesk $end
$var reg 8 z exewbop[7:0] $end
$var reg 1 { exewbsk $end
$var reg 1 | notclk $end
$var reg 9 } imp[8:0] $end
$var reg 9 !" inter1[8:0] $end
$var reg 9 "" inter2[8:0] $end
$scope module istageidexe $end
$var reg 9 #" din[8:0] $end
$var reg 9 $" dout[8:0] $end
$var reg 1 %" clock $end
$upscope $end
$scope module istageexewb $end
$var reg 9 &" din[8:0] $end
$var reg 9 '" dout[8:0] $end
$var reg 1 (" clock $end
$upscope $end
$upscope $end
$scope module alu_selmuxa $end
$var reg 8 )" in1[7:0] $end
$var reg 8 *" in2[7:0] $end
$var reg 8 +" out1[7:0] $end
$var reg 1 ," sel $end
$upscope $end
$scope module alu_selmuxb $end
$var reg 8 -" in1[7:0] $end
$var reg 8 ." in2[7:0] $end
$var reg 8 /" out1[7:0] $end
$var reg 1 0" sel $end
$upscope $end
$scope module regselmux $end
$var reg 8 1" in1[7:0] $end
$var reg 8 2" in2[7:0] $end
$var reg 8 3" out1[7:0] $end
$var reg 1 4" sel $end
$upscope $end
$scope module skipmux $end
$var reg 1 5" in1[0:0] $end
$var reg 1 6" in2[0:0] $end
$var reg 1 7" out1[0:0] $end
$var reg 1 8" sel $end
$upscope $end
$scope module compmux $end
$var reg 1 9" in1[0:0] $end
$var reg 1 :" in2[0:0] $end
$var reg 1 ;" out1[0:0] $end
$var reg 1 <" sel $end
$upscope $end
$scope module immmux $end
$var reg 8 =" in1[7:0] $end
$var reg 8 >" in2[7:0] $end
$var reg 8 ?" out1[7:0] $end
$var reg 1 @" sel $end
$upscope $end
$scope module lodmux $end
$var reg 8 A" in1[7:0] $end
$var reg 8 B" in2[7:0] $end
$var reg 8 C" out1[7:0] $end
$var reg 1 D" sel $end
$upscope $end
$scope module twosmux $end
$var reg 8 E" in1[7:0] $end
$var reg 8 F" in2[7:0] $end
$var reg 8 G" out1[7:0] $end
$var reg 1 H" sel $end
$upscope $end
$scope module twoscomp $end
$var reg 8 I" input[7:0] $end
$var reg 8 J" output[7:0] $end
$var reg 8 K" fliptoadd[7:0] $end
$var reg 8 L" one[7:0] $end
$scope module inst_flip $end
$var reg 8 M" in1[7:0] $end
$var reg 8 N" out1[7:0] $end
$upscope $end
$scope module inst_adder $end
$var reg 8 O" a[7:0] $end
$var reg 8 P" b[7:0] $end
$var reg 1 Q" cin $end
$var reg 8 R" sum[7:0] $end
$var reg 1 S" carryout $end
$var reg 1 T" underflow $end
$var reg 8 U" prop[7:0] $end
$var reg 8 V" gen[7:0] $end
$var reg 8 W" c_int[7:0] $end
$var reg 1 X" slicesevensumout $end
$scope module inst_cla_slice0 $end
$var reg 1 Y" a $end
$var reg 1 Z" b $end
$var reg 1 [" cin $end
$var reg 1 \" p $end
$var reg 1 ]" g $end
$var reg 1 ^" sum_out $end
$upscope $end
$scope module inst_cla_slice1 $end
$var reg 1 _" a $end
$var reg 1 `" b $end
$var reg 1 a" cin $end
$var reg 1 b" p $end
$var reg 1 c" g $end
$var reg 1 d" sum_out $end
$upscope $end
$scope module inst_cla_slice2 $end
$var reg 1 e" a $end
$var reg 1 f" b $end
$var reg 1 g" cin $end
$var reg 1 h" p $end
$var reg 1 i" g $end
$var reg 1 j" sum_out $end
$upscope $end
$scope module inst_cla_slice3 $end
$var reg 1 k" a $end
$var reg 1 l" b $end
$var reg 1 m" cin $end
$var reg 1 n" p $end
$var reg 1 o" g $end
$var reg 1 p" sum_out $end
$upscope $end
$scope module inst_cla_slice4 $end
$var reg 1 q" a $end
$var reg 1 r" b $end
$var reg 1 s" cin $end
$var reg 1 t" p $end
$var reg 1 u" g $end
$var reg 1 v" sum_out $end
$upscope $end
$scope module inst_cla_slice5 $end
$var reg 1 w" a $end
$var reg 1 x" b $end
$var reg 1 y" cin $end
$var reg 1 z" p $end
$var reg 1 {" g $end
$var reg 1 |" sum_out $end
$upscope $end
$scope module inst_cla_slice6 $end
$var reg 1 }" a $end
$var reg 1 !# b $end
$var reg 1 "# cin $end
$var reg 1 ## p $end
$var reg 1 $# g $end
$var reg 1 %# sum_out $end
$upscope $end
$scope module inst_cla_slice7 $end
$var reg 1 &# a $end
$var reg 1 '# b $end
$var reg 1 (# cin $end
$var reg 1 )# p $end
$var reg 1 *# g $end
$var reg 1 +# sum_out $end
$upscope $end
$scope module inst_cla_block $end
$var reg 8 ,# p[7:0] $end
$var reg 8 -# g[7:0] $end
$var reg 8 .# cout[7:0] $end
$var reg 8 /# cint[7:0] $end
$upscope $end
$scope module inst_uf $end
$var reg 1 0# signa $end
$var reg 1 1# signb $end
$var reg 1 2# signr $end
$var reg 1 3# uf $end
$upscope $end
$upscope $end
$upscope $end
$scope module regmem0 $end
$var reg 2 4# reg1[1:0] $end
$var reg 2 5# reg2[1:0] $end
$var reg 2 6# dstreg[1:0] $end
$var reg 2 7# writeback[1:0] $end
$var reg 1 8# writeen $end
$var reg 8 9# writedata[7:0] $end
$var reg 1 :# clock $end
$var reg 8 ;# reg1data[7:0] $end
$var reg 8 <# reg2data[7:0] $end
$var reg 8 =# rddata[7:0] $end
$var reg 8 ># r0[7:0] $end
$var reg 8 ?# r1[7:0] $end
$var reg 8 @# r2[7:0] $end
$var reg 8 A# r3[7:0] $end
$upscope $end
$scope module alu $end
$var reg 8 B# a[7:0] $end
$var reg 8 C# b[7:0] $end
$var reg 1 D# cin $end
$var reg 8 E# sum[7:0] $end
$var reg 1 F# carryout $end
$var reg 1 G# underflow $end
$var reg 8 H# prop[7:0] $end
$var reg 8 I# gen[7:0] $end
$var reg 8 J# c_int[7:0] $end
$var reg 1 K# slicesevensumout $end
$scope module inst_cla_slice0 $end
$var reg 1 L# a $end
$var reg 1 M# b $end
$var reg 1 N# cin $end
$var reg 1 O# p $end
$var reg 1 P# g $end
$var reg 1 Q# sum_out $end
$upscope $end
$scope module inst_cla_slice1 $end
$var reg 1 R# a $end
$var reg 1 S# b $end
$var reg 1 T# cin $end
$var reg 1 U# p $end
$var reg 1 V# g $end
$var reg 1 W# sum_out $end
$upscope $end
$scope module inst_cla_slice2 $end
$var reg 1 X# a $end
$var reg 1 Y# b $end
$var reg 1 Z# cin $end
$var reg 1 [# p $end
$var reg 1 \# g $end
$var reg 1 ]# sum_out $end
$upscope $end
$scope module inst_cla_slice3 $end
$var reg 1 ^# a $end
$var reg 1 _# b $end
$var reg 1 `# cin $end
$var reg 1 a# p $end
$var reg 1 b# g $end
$var reg 1 c# sum_out $end
$upscope $end
$scope module inst_cla_slice4 $end
$var reg 1 d# a $end
$var reg 1 e# b $end
$var reg 1 f# cin $end
$var reg 1 g# p $end
$var reg 1 h# g $end
$var reg 1 i# sum_out $end
$upscope $end
$scope module inst_cla_slice5 $end
$var reg 1 j# a $end
$var reg 1 k# b $end
$var reg 1 l# cin $end
$var reg 1 m# p $end
$var reg 1 n# g $end
$var reg 1 o# sum_out $end
$upscope $end
$scope module inst_cla_slice6 $end
$var reg 1 p# a $end
$var reg 1 q# b $end
$var reg 1 r# cin $end
$var reg 1 s# p $end
$var reg 1 t# g $end
$var reg 1 u# sum_out $end
$upscope $end
$scope module inst_cla_slice7 $end
$var reg 1 v# a $end
$var reg 1 w# b $end
$var reg 1 x# cin $end
$var reg 1 y# p $end
$var reg 1 z# g $end
$var reg 1 {# sum_out $end
$upscope $end
$scope module inst_cla_block $end
$var reg 8 |# p[7:0] $end
$var reg 8 }# g[7:0] $end
$var reg 8 !$ cout[7:0] $end
$var reg 8 "$ cint[7:0] $end
$upscope $end
$scope module inst_uf $end
$var reg 1 #$ signa $end
$var reg 1 $$ signb $end
$var reg 1 %$ signr $end
$var reg 1 &$ uf $end
$upscope $end
$upscope $end
$scope module zerocheck0 $end
$var reg 8 '$ input[7:0] $end
$var reg 1 ($ output[0:0] $end
$upscope $end
$scope module sreg0 $end
$var reg 1 )$ i_shift_in $end
$var reg 1 *$ sel[0:0] $end
$var reg 1 +$ clock $end
$var reg 1 ,$ o $end
$var reg 2 -$ storage[1:0] $end
$upscope $end
$scope module signext $end
$var reg 4 .$ input[3:0] $end
$var reg 8 /$ output[7:0] $end
$upscope $end
$scope module istageidexe $end
$var reg 28 0$ din[27:0] $end
$var reg 28 1$ dout[27:0] $end
$var reg 1 2$ clock $end
$upscope $end
$scope module istageexewb $end
$var reg 9 3$ din[8:0] $end
$var reg 9 4$ dout[8:0] $end
$var reg 1 5$ clock $end
$upscope $end
$upscope $end
$enddefinitions $end
#0
b00010111 !
b00000000 "
0#
0$
0%
0&
b00010111 '
b00000000 (
0)
0*
0+
0,
0-
bUUUUUUU .
1/
10
01
12
03
04
05
b00000000 6
b00000000 7
b00000000 8
b00000000 9
b0 :
b0 ;
b00000000 <
b00000000 =
b00000000 >
b00000000 ?
0@
b1 A
b00000000 B
b000000000000000000000000UUUU C
b000000001 D
b0000000000000000000000000000 E
b000000000 F
b00000000 G
b00000000 H
b00000000 I
b0000 J
b00000000 K
b0 L
1M
UN
UO
UP
UQ
UR
US
UT
UU
bUU V
bUU W
bUU X
bUUUU Y
b00000000 Z
1[
1\
0]
b00000000 ^
b00000000 _
b00 `
0a
Ub
Uc
Ud
Ue
Uf
Ug
Uh
Ui
0j
0k
1l
1m
0n
0o
1p
1q
0r
1s
0t
0u
0v
b00 w
b00000000 x
0y
b00000000 z
0{
1|
bUUUUUUUU0 }
b000000000 !"
b000000000 ""
bUUUUUUUU0 #"
b000000000 $"
1%"
b000000000 &"
b000000000 '"
1("
b00000000 )"
b00000000 *"
b00000000 +"
1,"
b00000000 -"
b00000000 ."
b00000000 /"
10"
b00000000 1"
b00000000 2"
b00000000 3"
14"
b0 5"
b0 6"
b0 7"
08"
b1 9"
b0 :"
b0 ;"
1<"
b00000000 ="
b00000000 >"
b00000000 ?"
0@"
b00000000 A"
b00000000 B"
b00000000 C"
0D"
b00000000 E"
b00000000 F"
b00000000 G"
1H"
b00000000 I"
b00000000 J"
b11111111 K"
b00000001 L"
b00000000 M"
b11111111 N"
b11111111 O"
b00000001 P"
0Q"
b00000000 R"
1S"
0T"
b11111110 U"
b00000001 V"
b11111111 W"
0X"
1Y"
1Z"
0["
0\"
1]"
0^"
1_"
0`"
1a"
1b"
0c"
0d"
1e"
0f"
1g"
1h"
0i"
0j"
1k"
0l"
1m"
1n"
0o"
0p"
1q"
0r"
1s"
1t"
0u"
0v"
1w"
0x"
1y"
1z"
0{"
0|"
1}"
0!#
1"#
1##
0$#
0%#
1&#
0'#
1(#
1)#
0*#
0+#
b11111110 ,#
b00000001 -#
b11111111 .#
b11111111 /#
10#
01#
02#
03#
bUU 4#
bUU 5#
bUU 6#
b00 7#
18#
b00000000 9#
0:#
b00000000 ;#
b00000000 <#
b00000000 =#
b00000000 >#
b00000000 ?#
b00000000 @#
b00000000 A#
b00000000 B#
b00000000 C#
0D#
b00000000 E#
0F#
0G#
b00000000 H#
b00000000 I#
b00000000 J#
0K#
0L#
0M#
0N#
0O#
0P#
0Q#
0R#
0S#
0T#
0U#
0V#
0W#
0X#
0Y#
0Z#
0[#
0\#
0]#
0^#
0_#
0`#
0a#
0b#
0c#
0d#
0e#
0f#
0g#
0h#
0i#
0j#
0k#
0l#
0m#
0n#
0o#
0p#
0q#
0r#
0s#
0t#
0u#
0v#
0w#
0x#
0y#
0z#
0{#
b00000000 |#
b00000000 }#
b00000000 !$
b00000000 "$
0#$
0$$
0%$
0&$
b00000000 '$
b1 ($
U)$
b0 *$
0+$
0,$
b00 -$
b0000 .$
b00000000 /$
b000000000000000000000000UUUU 0$
b0000000000000000000000000000 1$
02$
b000000001 3$
b000000000 4$
15$
#1000000
1$
1,
1-
bUUUUUUUU <
bUUUUUUUU B
b0000000000000000000000000111 C
b000000000000000000000000UUUU E
bUUUU J
0M
1N
1O
1P
0Q
1R
0S
0T
0U
b01 V
b11 W
b01 X
b0111 Y
1b
1c
1d
0e
1f
0g
0h
0i
1k
0|
b000101110 }
b000101110 #"
0%"
0("
bUUUUUUUU -"
bUUUUUUUU ="
bUUUUUUUU ?"
b01 4#
b11 5#
b01 6#
1:#
1)$
1+$
bUUUU .$
bUUUUUUUU /$
b0000000000000000000000000111 0$
b000000000000000000000000UUUU 1$
12$
05$
#2000000
b00101111 !
0$
b00101111 '
0,
0-
bUUUUUUUU ?
bU A
bUUUUUUUUU D
b000000001 F
b1 L
1M
0[
0\
bUUUUUUUU _
0k
0l
0m
b00010111 x
1|
b000101110 !"
b000101110 $"
1%"
b000101110 &"
1("
0,"
bUUUUUUUU /"
00"
bU 9"
0:#
bUUUUUUUU C#
bUUUUUUUU E#
bUUUUUUUU H#
UK#
UM#
UO#
UQ#
US#
UU#
UW#
UY#
U[#
U]#
U_#
Ua#
Uc#
Ue#
Ug#
Ui#
Uk#
Um#
Uo#
Uq#
Us#
Uu#
Uw#
Uy#
U{#
bUUUUUUUU |#
U$$
U%$
bUUUUUUUU '$
bU ($
0+$
02$
bUUUUUUUUU 3$
b000000001 4$
15$
#3000000
1$
1,
1-
b00000111 <
b00000111 ?
b0 A
b00000111 B
b0000000000000000000000001111 C
b000001110 D
b0000000000000000000000000111 E
b0111 J
0M
1Q
0R
1S
b11 V
b10 X
b1111 Y
b00000111 _
1e
0f
1g
1k
0|
b001011110 }
b001011110 #"
0%"
0("
b00000111 -"
b00000111 /"
b0 9"
b00000111 ="
b00000111 ?"
b11 4#
b10 6#
1:#
b00000111 C#
b00000111 E#
b00000111 H#
0K#
1M#
1O#
1Q#
1S#
1U#
1W#
1Y#
1[#
1]#
0_#
0a#
0c#
0e#
0g#
0i#
0k#
0m#
0o#
0q#
0s#
0u#
0w#
0y#
0{#
b00000111 |#
0$$
0%$
b00000111 '$
b0 ($
1+$
b0111 .$
b00000111 /$
b0000000000000000000000001111 0$
b0000000000000000000000000111 1$
12$
b000001110 3$
05$
#4000000
b01000110 !
b00000111 "
0$
1%
b01000110 '
b00000111 (
1*
0,
0-
b000001110 F
b00000111 K
b0 L
1M
1]
b01 `
0k
1n
b01 w
b00101111 x
b00010111 z
1|
b001011110 !"
b000101110 ""
b001011110 $"
1%"
b001011110 &"
b000101110 '"
1("
b00000111 *"
b00000111 ."
b01 7#
b00000111 9#
0:#
0+$
02$
b000001110 4$
15$
#5000000
1$
1,
1-
b11111111 <
b11111111 ?
b11111111 B
b0000000000000000000000000110 C
b111111110 D
b0000000000000000000000001111 E
b1111 J
0M
0N
0Q
0S
1T
b01 V
b10 W
b00 X
b0110 Y
b11111111 _
0b
0e
0g
1h
1k
0|
b010001100 }
b010001100 #"
0%"
0("
b11111111 -"
b11111111 /"
b11111111 ="
b11111111 ?"
b01 4#
b10 5#
b00 6#
1:#
b00000111 ?#
b11111111 C#
b11111111 E#
b11111111 H#
1K#
1_#
1a#
1c#
1e#
1g#
1i#
1k#
1m#
1o#
1q#
1s#
1u#
1w#
1y#
1{#
b11111111 |#
1$$
1%$
b11111111 '$
1+$
b1111 .$
b11111111 /$
b0000000000000000000000000110 0$
b0000000000000000000000001111 1$
12$
b111111110 3$
05$
#6000000
b01000100 !
b11111111 "
0$
b01000100 '
b11111111 (
0,
0-
11
15
b00000111 6
b00000000 <
b0000011100000000000000000110 C
b111111110 F
b11111111 K
1M
1\
b10 `
0k
1m
1r
1v
b10 w
b01000110 x
b00101111 z
1|
b010001100 !"
b001011110 ""
b010001100 $"
1%"
b010001100 &"
b001011110 '"
1("
b11111111 *"
b00000000 -"
b11111111 ."
10"
b00000000 ?"
1@"
1D"
b10 7#
b11111111 9#
0:#
b00000111 ;#
0+$
b0000011100000000000000000110 0$
02$
b111111110 4$
15$
#7000000
1$
1,
1-
b00000111 =
b00000110 ?
b00000110 B
b0000011100000000000000000100 C
b000001100 D
b0000011100000000000000000110 E
b00000111 H
b0110 J
0M
0O
b00 W
b0100 Y
b00000111 ^
0c
1k
0|
b010001000 }
b010001000 #"
0%"
0("
b00000111 )"
b00000111 +"
b00000110 ="
b00000111 B"
b00000111 C"
b00 5#
1:#
b11111111 @#
b00000111 B#
b00000110 E#
1F#
b11111000 H#
b00000111 I#
b11111111 J#
0K#
1L#
0O#
1P#
0Q#
1R#
1T#
0U#
1V#
1W#
1X#
1Z#
0[#
1\#
1]#
1`#
0c#
1f#
0i#
1l#
0o#
1r#
0u#
1x#
0{#
b11111000 |#
b00000111 }#
b11111111 !$
b11111111 "$
0%$
b00000110 '$
0)$
1+$
b0110 .$
b00000110 /$
b0000011100000000000000000100 0$
b0000011100000000000000000110 1$
12$
b000001100 3$
05$
#8000000
b00000110 "
0$
0%
b00000110 (
0*
0,
0-
b00001101 ?
b000011010 D
b000001100 F
b00000110 K
1M
0]
b00000110 _
b00 `
0k
0n
b00 w
b01000100 x
b01000110 z
1|
b010001000 !"
b010001100 ""
b010001000 $"
1%"
b010001000 &"
b010001100 '"
1("
b00000110 *"
b00000110 ."
b00000110 /"
b00 7#
b00000110 9#
0:#
b00000110 C#
b00001101 E#
0F#
b00000001 H#
b00000110 I#
b00000110 J#
0K#
0M#
1O#
0P#
1Q#
0T#
0W#
0_#
0a#
1c#
0e#
0f#
0g#
0i#
0k#
0l#
0m#
0o#
0q#
0r#
0s#
0u#
0w#
0x#
0y#
0{#
b00000001 |#
b00000110 }#
b00000110 !$
b00000110 "$
0$$
0%$
b00001101 '$
0+$
02$
b000011010 3$
b000001100 4$
15$
#9000000
1$
1,
1-
b00000100 B
b0000011100000000000001100100 C
b0000011100000000000000000100 E
b0100 J
0M
b00000110 Z
1k
0|
0%"
0("
b00000100 ="
1:#
b00000110 =#
b00000110 >#
1+$
b0100 .$
b00000100 /$
b0000011100000000000001100100 0$
b0000011100000000000000000100 1$
12$
05$
#10000000
b00001101 "
0$
b00001101 (
0,
0-
b00000110 7
b00010100 ?
b0000011100000110000001100100 C
b000101000 D
b000011010 F
b00001101 K
1M
b00001101 _
0k
b01000100 z
1|
b010001000 ""
1%"
b010001000 '"
1("
b00001101 *"
b00001101 ."
b00001101 /"
b00001101 9#
0:#
b00000110 <#
b00001101 C#
b00010100 E#
b00001010 H#
b00000101 I#
b00001111 J#
1M#
0O#
1P#
0Q#
0S#
1T#
1U#
0V#
0W#
1Z#
1]#
1_#
1a#
0c#
1f#
1i#
b00001010 |#
b00000101 }#
b00001111 !$
b00001111 "$
b00010100 '$
0+$
b0000011100000110000001100100 0$
02$
b000101000 3$
b000011010 4$
15$
#11000000
1$
1,
1-
b11111010 8
b00000110 9
b00000110 <
b00000110 >
b0000011100000110000011010100 C
b0000011100000110000001100100 E
b00000110 G
b00000110 I
0M
b00001101 Z
1k
0|
0%"
0("
b00000110 -"
b00000110 1"
b00000110 2"
b00000110 3"
b00000110 >"
b00000110 ?"
b11111010 E"
b00000110 F"
b00000110 G"
b00000110 I"
b11111010 J"
b11111001 K"
b00000110 M"
b11111001 N"
b11111001 O"
b11111010 R"
0S"
b11111000 U"
b00000001 W"
1X"
0_"
0b"
1d"
0e"
0g"
0h"
0j"
0m"
1p"
0s"
1v"
0y"
1|"
0"#
1%#
0(#
1+#
b11111000 ,#
b00000001 .#
b00000001 /#
12#
1:#
b00001101 =#
b00001101 >#
1+$
b0000011100000110000011010100 0$
b0000011100000110000001100100 1$
12$
05$
#12000000
b11000000 !
b00010100 "
0$
b11000000 '
b00010100 (
0,
0-
b00001101 7
b00011011 ?
b0000011100001101000011010100 C
b000110110 D
b000101000 F
b00010100 K
1M
b00010100 _
0k
1|
1%"
1("
b00010100 *"
b00010100 ."
b00010100 /"
b00010100 9#
0:#
b00001101 <#
b00010100 C#
b00011011 E#
b00010011 H#
b00000100 I#
b00000100 J#
0M#
1O#
0P#
1Q#
0T#
1W#
0Z#
0]#
0_#
0a#
1c#
1e#
0f#
1g#
1i#
0l#
0o#
b00010011 |#
b00000100 }#
b00000100 !$
b00000100 "$
b00011011 '$
0+$
b0000011100001101000011010100 0$
02$
b000110110 3$
b000101000 4$
15$
#13000000
1$
1,
1-
b11110011 8
b00001101 9
b00001101 <
b00001101 >
b0000011100001101000101000000 C
b0000011100001101000011010100 E
b00001101 G
b00001101 I
0M
0P
1U
b00 V
b0000 Y
b00010100 Z
0d
1i
1k
0|
b110000000 }
b110000000 #"
0%"
0("
b00001101 -"
b00001101 1"
b00001101 2"
b00001101 3"
b00001101 >"
b00001101 ?"
b11110011 E"
b00001101 F"
b00001101 G"
b00001101 I"
b11110011 J"
b11110010 K"
b00001101 M"
b11110010 N"
b11110010 O"
b11110011 R"
b11110011 U"
b00000000 V"
b00000000 W"
0Y"
1\"
0]"
1^"
1_"
0a"
1b"
1d"
0g"
0j"
0k"
0n"
0p"
b11110011 ,#
b00000000 -#
b00000000 .#
b00000000 /#
b00 4#
1:#
b00010100 =#
b00010100 >#
1+$
b0000011100001101000101000000 0$
b0000011100001101000011010100 1$
12$
05$
#14000000
b11000011 !
b00011011 "
0$
b11000011 '
b00011011 (
0,
0-
b00010100 6
b00010100 7
b00110110 ?
b0001010000010100000101000000 C
b001101100 D
b000110110 F
b00011011 K
1M
1[
b00011011 ^
b00011011 _
0k
1l
b11000000 x
1|
b110000000 !"
b110000000 $"
1%"
b110000000 &"
1("
b00011011 *"
b00011011 +"
1,"
b00011011 ."
b00011011 /"
b00011011 9#
0:#
b00010100 ;#
b00010100 <#
b00011011 B#
b00011011 C#
b00110110 E#
b00000000 H#
b00011011 I#
b00011011 J#
1M#
0O#
1P#
0Q#
1S#
1T#
0U#
1V#
1W#
0X#
0Y#
1Z#
0[#
0\#
1]#
1^#
1_#
0`#
0a#
1b#
0c#
1d#
1f#
0g#
1h#
1i#
1l#
1o#
b00000000 |#
b00011011 }#
b00011011 !$
b00011011 "$
b00110110 '$
0+$
b0001010000010100000101000000 0$
02$
b001101100 3$
b000110110 4$
15$
#15000000
1$
1,
1-
b11101100 8
b00010100 9
b00010100 <
b00010100 =
b00010100 >
b00000000 B
b0001010000010100000110110011 C
b0001010000010100000101000000 E
b00010100 G
b00010100 H
b00010100 I
b0000 J
0M
1N
1O
b11 W
b0011 Y
b00011011 Z
1b
1c
1k
0|
b110000110 }
b110000110 #"
0%"
0("
b00010100 )"
b00010100 -"
b00010100 1"
b00010100 2"
b00010100 3"
b00000000 ="
b00010100 >"
b00010100 ?"
b00010100 B"
b00010100 C"
b11101100 E"
b00010100 F"
b00010100 G"
b00010100 I"
b11101100 J"
b11101011 K"
b00010100 M"
b11101011 N"
b11101011 O"
b11101100 R"
b11101010 U"
b00000001 V"
b00000011 W"
1Y"
0\"
1]"
0^"
1a"
0d"
1g"
1j"
1k"
1n"
1p"
0q"
0t"
0v"
b11101010 ,#
b00000001 -#
b00000011 .#
b00000011 /#
b11 5#
1:#
b00011011 =#
b00011011 >#
1)$
1+$
b0000 .$
b00000000 /$
b0001010000010100000110110011 0$
b0001010000010100000101000000 1$
12$
05$
#16000000
b00110110 "
1#
0$
1&
b00110110 (
1)
1+
0,
0-
0/
13
b00011011 6
b00000000 7
b01001010 ?
b0001101100000000000110110011 C
b010010100 D
b001101100 F
b00110110 K
1M
0\
b00110110 ^
b00010100 _
1a
0k
0m
1o
0p
1t
b11000011 x
b11000000 z
1|
b110000110 !"
b110000000 ""
b110000110 $"
1%"
b110000110 &"
b110000000 '"
1("
b00110110 *"
b00110110 +"
b00110110 ."
b00010100 /"
00"
08#
b00110110 9#
0:#
b00011011 ;#
b00000000 <#
b00110110 B#
b00010100 C#
b01001010 E#
b00100010 H#
b00010100 I#
b00110100 J#
0L#
0M#
0P#
0S#
0T#
1U#
0V#
1W#
1X#
1Y#
0Z#
1\#
0]#
0^#
0_#
1`#
0b#
1c#
0f#
0i#
1j#
0k#
1m#
0n#
0o#
1r#
1u#
b00100010 |#
b00010100 }#
b00110100 !$
b00110100 "$
b01001010 '$
0+$
b0001101100000000000110110011 0$
02$
b010010100 3$
b001101100 4$
15$
#17000000
1$
1,
1-
b00000000 8
b00000000 9
b00000000 <
b00011011 =
b00000000 >
b00110110 ?
b00000011 B
b001101100 D
b0001101100000000000110110011 E
b00011011 G
b00011011 H
b00000000 I
b0011 J
0M
b00000000 _
1k
0|
0%"
0("
b00011011 )"
b00000000 -"
b00000000 /"
b00011011 1"
b00000000 2"
b00000000 3"
b00000011 ="
b00000000 >"
b00000000 ?"
b00011011 B"
b00011011 C"
b00000000 E"
b00000000 F"
b00000000 G"
b00000000 I"
b00000000 J"
b11111111 K"
b00000000 M"
b11111111 N"
b11111111 O"
b00000000 R"
1S"
b11111110 U"
b11111111 W"
0X"
1e"
1h"
0j"
1m"
0p"
1q"
1s"
1t"
0v"
1y"
0|"
1"#
0%#
1(#
0+#
b11111110 ,#
b11111111 .#
b11111111 /#
02#
1:#
b00000000 C#
b00110110 E#
b00110110 H#
b00000000 I#
b00000000 J#
0Y#
1[#
0\#
1]#
0`#
0c#
0e#
1g#
0h#
1i#
0l#
1o#
0r#
0u#
b00110110 |#
b00000000 }#
b00000000 !$
b00000000 "$
b00110110 '$
1+$
b0011 .$
b00000011 /$
b0001101100000000000110110011 1$
12$
b001101100 3$
05$
