lab4/dsp.vcd
$date
  Tue May 15 12:57:18 2018
$end
$version
  GHDL v0
$end
$timescale
  1 fs
$end
$var reg 8 ! op[7:0] $end
$var reg 8 " data[7:0] $end
$var reg 1 # en $end
$var reg 1 $ clock $end
$var reg 1 % bre $end
$var reg 1 & nop $end
$var reg 1 ' bren $end
$scope module c1 $end
$var reg 8 ( opcode[7:0] $end
$var reg 8 ) dataout[7:0] $end
$var reg 1 * dispen $end
$var reg 1 + bren $end
$var reg 1 , bre $end
$var reg 1 - nop $end
$var reg 1 . clk $end
$var reg 1 / clksig $end
$var reg 7 0 controlsig[6:0] $end
$var reg 1 1 cregmem $end
$var reg 1 2 ctwosum $end
$var reg 1 3 cimmmux $end
$var reg 1 4 ccompmux $end
$var reg 1 5 cdispen $end
$var reg 1 6 cskipmux $end
$var reg 1 7 clodmux $end
$var reg 8 8 regdatasigone[7:0] $end
$var reg 8 9 regdatasigtwo[7:0] $end
$var reg 8 : twoscompsig[7:0] $end
$var reg 8 ; regselmuxsig[7:0] $end
$var reg 1 < skipmuxsig[0:0] $end
$var reg 1 = compmuxsig[0:0] $end
$var reg 8 > immmuxsig[7:0] $end
$var reg 8 ? lodmuxsig[7:0] $end
$var reg 8 @ twosmuxsig[7:0] $end
$var reg 8 A alusig[7:0] $end
$var reg 1 B skipshifttocontrolsig $end
$var reg 1 C zerosig[0:0] $end
$var reg 8 D signextendsig[7:0] $end
$var reg 28 E isregidexein[27:0] $end
$var reg 17 F isregexewbin[16:0] $end
$var reg 28 G isregidexesigout[27:0] $end
$var reg 17 H isregexewbsigout[16:0] $end
$var reg 8 I isregidexesigdout[7:0] $end
$var reg 8 J isregidexesigone[7:0] $end
$var reg 8 K isregidexesigtwo[7:0] $end
$var reg 4 L isregidexesigimm[3:0] $end
$var reg 8 M isregexewbsigalu[7:0] $end
$var reg 8 N isregexewbsigdout[7:0] $end
$var reg 1 O isregexewbsigdzero[0:0] $end
$var reg 1 P notclk $end
$var reg 1 Q op0 $end
$var reg 1 R op1 $end
$var reg 1 S op2 $end
$var reg 1 T op3 $end
$var reg 1 U op4 $end
$var reg 1 V op5 $end
$var reg 1 W op6 $end
$var reg 1 X op7 $end
$var reg 2 Y r1[1:0] $end
$var reg 2 Z r2[1:0] $end
$var reg 2 [ rd[1:0] $end
$var reg 4 \ imm[3:0] $end
$var reg 8 ] doutsig[7:0] $end
$var reg 1 ^ aluselasig $end
$var reg 1 _ aluselbsig $end
$var reg 1 ` brecontrol $end
$var reg 8 a a[7:0] $end
$var reg 8 b b[7:0] $end
$var reg 2 c rdexewb[1:0] $end
$var reg 1 d nopen $end
$var reg 8 e dsp[7:0] $end
$var reg 8 f exewbrd[7:0] $end
$var reg 1 g branchen $end
$var reg 1 h dsp_for $end
$var reg 1 i ca $end
$var reg 1 j bamt $end
$scope module controlmain $end
$var reg 1 k op_0 $end
$var reg 1 l op_1 $end
$var reg 1 m op_2 $end
$var reg 1 n op_3 $end
$var reg 1 o op_4 $end
$var reg 1 p op_5 $end
$var reg 1 q op_6 $end
$var reg 1 r op_7 $end
$var reg 1 s skip $end
$var reg 1 t clk $end
$var reg 1 u inp_1 $end
$var reg 1 v inp_2 $end
$var reg 1 w dsp_f $end
$var reg 1 x bre $end
$var reg 1 y breamt $end
$var reg 1 z nop $end
$var reg 1 { write_en $end
$var reg 1 | two_en $end
$var reg 1 } imm_en $end
$var reg 1 !" cmpb_en $end
$var reg 1 "" cmpa_en $end
$var reg 1 #" disp_en $end
$var reg 1 $" skp_pass $end
$var reg 1 %" lod $end
$var reg 2 &" rd[1:0] $end
$var reg 8 '" idexeop[7:0] $end
$var reg 1 (" idexesk $end
$var reg 8 )" exewbop[7:0] $end
$var reg 1 *" exewbsk $end
$var reg 1 +" notclk $end
$var reg 9 ," imp[8:0] $end
$var reg 9 -" inter1[8:0] $end
$var reg 9 ." inter2[8:0] $end
$scope module istageidexe $end
$var reg 9 /" din[8:0] $end
$var reg 9 0" dout[8:0] $end
$var reg 1 1" clock $end
$upscope $end
$scope module istageexewb $end
$var reg 9 2" din[8:0] $end
$var reg 9 3" dout[8:0] $end
$var reg 1 4" clock $end
$upscope $end
$upscope $end
$scope module alu_selmuxa $end
$var reg 8 5" in1[7:0] $end
$var reg 8 6" in2[7:0] $end
$var reg 8 7" out1[7:0] $end
$var reg 1 8" sel $end
$upscope $end
$scope module alu_selmuxb $end
$var reg 8 9" in1[7:0] $end
$var reg 8 :" in2[7:0] $end
$var reg 8 ;" out1[7:0] $end
$var reg 1 <" sel $end
$upscope $end
$scope module regselmux $end
$var reg 8 =" in1[7:0] $end
$var reg 8 >" in2[7:0] $end
$var reg 8 ?" out1[7:0] $end
$var reg 1 @" sel $end
$upscope $end
$scope module skipmux $end
$var reg 1 A" in1[0:0] $end
$var reg 1 B" in2[0:0] $end
$var reg 1 C" out1[0:0] $end
$var reg 1 D" sel $end
$upscope $end
$scope module compmux $end
$var reg 1 E" in1[0:0] $end
$var reg 1 F" in2[0:0] $end
$var reg 1 G" out1[0:0] $end
$var reg 1 H" sel $end
$upscope $end
$scope module immmux $end
$var reg 8 I" in1[7:0] $end
$var reg 8 J" in2[7:0] $end
$var reg 8 K" out1[7:0] $end
$var reg 1 L" sel $end
$upscope $end
$scope module lodmux $end
$var reg 8 M" in1[7:0] $end
$var reg 8 N" in2[7:0] $end
$var reg 8 O" out1[7:0] $end
$var reg 1 P" sel $end
$upscope $end
$scope module twosmux $end
$var reg 8 Q" in1[7:0] $end
$var reg 8 R" in2[7:0] $end
$var reg 8 S" out1[7:0] $end
$var reg 1 T" sel $end
$upscope $end
$scope module dispmux $end
$var reg 8 U" in1[7:0] $end
$var reg 8 V" in2[7:0] $end
$var reg 8 W" out1[7:0] $end
$var reg 1 X" sel $end
$upscope $end
$scope module dispforwardmux $end
$var reg 8 Y" in1[7:0] $end
$var reg 8 Z" in2[7:0] $end
$var reg 8 [" out1[7:0] $end
$var reg 1 \" sel $end
$upscope $end
$scope module twoscomp $end
$var reg 8 ]" input[7:0] $end
$var reg 8 ^" output[7:0] $end
$var reg 8 _" fliptoadd[7:0] $end
$var reg 8 `" one[7:0] $end
$scope module inst_flip $end
$var reg 8 a" in1[7:0] $end
$var reg 8 b" out1[7:0] $end
$upscope $end
$scope module inst_adder $end
$var reg 8 c" a[7:0] $end
$var reg 8 d" b[7:0] $end
$var reg 1 e" cin $end
$var reg 8 f" sum[7:0] $end
$var reg 1 g" carryout $end
$var reg 1 h" underflow $end
$var reg 8 i" prop[7:0] $end
$var reg 8 j" gen[7:0] $end
$var reg 8 k" c_int[7:0] $end
$var reg 1 l" slicesevensumout $end
$scope module inst_cla_slice0 $end
$var reg 1 m" a $end
$var reg 1 n" b $end
$var reg 1 o" cin $end
$var reg 1 p" p $end
$var reg 1 q" g $end
$var reg 1 r" sum_out $end
$upscope $end
$scope module inst_cla_slice1 $end
$var reg 1 s" a $end
$var reg 1 t" b $end
$var reg 1 u" cin $end
$var reg 1 v" p $end
$var reg 1 w" g $end
$var reg 1 x" sum_out $end
$upscope $end
$scope module inst_cla_slice2 $end
$var reg 1 y" a $end
$var reg 1 z" b $end
$var reg 1 {" cin $end
$var reg 1 |" p $end
$var reg 1 }" g $end
$var reg 1 !# sum_out $end
$upscope $end
$scope module inst_cla_slice3 $end
$var reg 1 "# a $end
$var reg 1 ## b $end
$var reg 1 $# cin $end
$var reg 1 %# p $end
$var reg 1 &# g $end
$var reg 1 '# sum_out $end
$upscope $end
$scope module inst_cla_slice4 $end
$var reg 1 (# a $end
$var reg 1 )# b $end
$var reg 1 *# cin $end
$var reg 1 +# p $end
$var reg 1 ,# g $end
$var reg 1 -# sum_out $end
$upscope $end
$scope module inst_cla_slice5 $end
$var reg 1 .# a $end
$var reg 1 /# b $end
$var reg 1 0# cin $end
$var reg 1 1# p $end
$var reg 1 2# g $end
$var reg 1 3# sum_out $end
$upscope $end
$scope module inst_cla_slice6 $end
$var reg 1 4# a $end
$var reg 1 5# b $end
$var reg 1 6# cin $end
$var reg 1 7# p $end
$var reg 1 8# g $end
$var reg 1 9# sum_out $end
$upscope $end
$scope module inst_cla_slice7 $end
$var reg 1 :# a $end
$var reg 1 ;# b $end
$var reg 1 <# cin $end
$var reg 1 =# p $end
$var reg 1 ># g $end
$var reg 1 ?# sum_out $end
$upscope $end
$scope module inst_cla_block $end
$var reg 8 @# p[7:0] $end
$var reg 8 A# g[7:0] $end
$var reg 8 B# cout[7:0] $end
$var reg 8 C# cint[7:0] $end
$upscope $end
$scope module inst_uf $end
$var reg 1 D# signa $end
$var reg 1 E# signb $end
$var reg 1 F# signr $end
$var reg 1 G# uf $end
$upscope $end
$upscope $end
$upscope $end
$scope module regmem0 $end
$var reg 2 H# reg1[1:0] $end
$var reg 2 I# reg2[1:0] $end
$var reg 2 J# dstreg[1:0] $end
$var reg 2 K# writeback[1:0] $end
$var reg 1 L# writeen $end
$var reg 8 M# writedata[7:0] $end
$var reg 1 N# clock $end
$var reg 8 O# reg1data[7:0] $end
$var reg 8 P# reg2data[7:0] $end
$var reg 8 Q# rddata[7:0] $end
$var reg 8 R# r0[7:0] $end
$var reg 8 S# r1[7:0] $end
$var reg 8 T# r2[7:0] $end
$var reg 8 U# r3[7:0] $end
$upscope $end
$scope module alu $end
$var reg 8 V# a[7:0] $end
$var reg 8 W# b[7:0] $end
$var reg 1 X# cin $end
$var reg 8 Y# sum[7:0] $end
$var reg 1 Z# carryout $end
$var reg 1 [# underflow $end
$var reg 8 \# prop[7:0] $end
$var reg 8 ]# gen[7:0] $end
$var reg 8 ^# c_int[7:0] $end
$var reg 1 _# slicesevensumout $end
$scope module inst_cla_slice0 $end
$var reg 1 `# a $end
$var reg 1 a# b $end
$var reg 1 b# cin $end
$var reg 1 c# p $end
$var reg 1 d# g $end
$var reg 1 e# sum_out $end
$upscope $end
$scope module inst_cla_slice1 $end
$var reg 1 f# a $end
$var reg 1 g# b $end
$var reg 1 h# cin $end
$var reg 1 i# p $end
$var reg 1 j# g $end
$var reg 1 k# sum_out $end
$upscope $end
$scope module inst_cla_slice2 $end
$var reg 1 l# a $end
$var reg 1 m# b $end
$var reg 1 n# cin $end
$var reg 1 o# p $end
$var reg 1 p# g $end
$var reg 1 q# sum_out $end
$upscope $end
$scope module inst_cla_slice3 $end
$var reg 1 r# a $end
$var reg 1 s# b $end
$var reg 1 t# cin $end
$var reg 1 u# p $end
$var reg 1 v# g $end
$var reg 1 w# sum_out $end
$upscope $end
$scope module inst_cla_slice4 $end
$var reg 1 x# a $end
$var reg 1 y# b $end
$var reg 1 z# cin $end
$var reg 1 {# p $end
$var reg 1 |# g $end
$var reg 1 }# sum_out $end
$upscope $end
$scope module inst_cla_slice5 $end
$var reg 1 !$ a $end
$var reg 1 "$ b $end
$var reg 1 #$ cin $end
$var reg 1 $$ p $end
$var reg 1 %$ g $end
$var reg 1 &$ sum_out $end
$upscope $end
$scope module inst_cla_slice6 $end
$var reg 1 '$ a $end
$var reg 1 ($ b $end
$var reg 1 )$ cin $end
$var reg 1 *$ p $end
$var reg 1 +$ g $end
$var reg 1 ,$ sum_out $end
$upscope $end
$scope module inst_cla_slice7 $end
$var reg 1 -$ a $end
$var reg 1 .$ b $end
$var reg 1 /$ cin $end
$var reg 1 0$ p $end
$var reg 1 1$ g $end
$var reg 1 2$ sum_out $end
$upscope $end
$scope module inst_cla_block $end
$var reg 8 3$ p[7:0] $end
$var reg 8 4$ g[7:0] $end
$var reg 8 5$ cout[7:0] $end
$var reg 8 6$ cint[7:0] $end
$upscope $end
$scope module inst_uf $end
$var reg 1 7$ signa $end
$var reg 1 8$ signb $end
$var reg 1 9$ signr $end
$var reg 1 :$ uf $end
$upscope $end
$upscope $end
$scope module zerocheck0 $end
$var reg 8 ;$ input[7:0] $end
$var reg 1 <$ output[0:0] $end
$upscope $end
$scope module sreg0 $end
$var reg 1 =$ i_shift_in $end
$var reg 1 >$ sel[0:0] $end
$var reg 1 ?$ clock $end
$var reg 1 @$ o $end
$var reg 2 A$ storage[1:0] $end
$upscope $end
$scope module signext $end
$var reg 4 B$ input[3:0] $end
$var reg 8 C$ output[7:0] $end
$upscope $end
$scope module istageidexe $end
$var reg 28 D$ din[27:0] $end
$var reg 28 E$ dout[27:0] $end
$var reg 1 F$ clock $end
$upscope $end
$scope module istageexewb $end
$var reg 17 G$ din[16:0] $end
$var reg 17 H$ dout[16:0] $end
$var reg 1 I$ clock $end
$upscope $end
$upscope $end
$enddefinitions $end
#0
b00000111 !
b00000000 "
0#
0$
0%
0&
0'
b00000111 (
b00000000 )
0*
0+
0,
0-
0.
0/
bUUUUUUU 0
11
12
03
14
05
06
07
b00000000 8
b00000000 9
b00000000 :
b00000000 ;
b0 <
b0 =
b00000000 >
b00000000 ?
b00000000 @
b00000000 A
0B
b1 C
b00000000 D
b000000000000000000000000UUUU E
b00000000100000000 F
b0000000000000000000000000000 G
b00000000000000000 H
b00000000 I
b00000000 J
b00000000 K
b0000 L
b00000000 M
b00000000 N
b0 O
1P
UQ
UR
US
UT
UU
UV
UW
UX
bUU Y
bUU Z
bUU [
bUUUU \
b00000000 ]
0^
0_
0`
b00000000 a
b00000000 b
b00 c
0d
b00000000 e
b00000000 f
Ug
0h
1i
0j
Uk
Ul
Um
Un
Uo
Up
Uq
Ur
0s
0t
0u
0v
0w
0x
0y
0z
1{
1|
0}
1!"
1""
0#"
0$"
0%"
b00 &"
b00000000 '"
0("
b00000000 )"
0*"
1+"
bUUUUUUUU0 ,"
b000000000 -"
b000000000 ."
bUUUUUUUU0 /"
b000000000 0"
11"
b000000000 2"
b000000000 3"
14"
b00000000 5"
b00000000 6"
b00000000 7"
08"
b00000000 9"
b00000000 :"
b00000000 ;"
0<"
b00000000 ="
b00000000 >"
b00000000 ?"
1@"
b0 A"
b0 B"
b0 C"
0D"
b0 E"
b0 F"
b0 G"
1H"
b00000000 I"
b00000000 J"
b00000000 K"
0L"
b00000000 M"
b00000000 N"
b00000000 O"
0P"
b00000000 Q"
b00000000 R"
b00000000 S"
1T"
b00000000 U"
b00000000 V"
b00000000 W"
0X"
b00000000 Y"
b00000000 Z"
b00000000 ["
0\"
b00000000 ]"
b00000000 ^"
b11111111 _"
b00000001 `"
b00000000 a"
b11111111 b"
b11111111 c"
b00000001 d"
0e"
b00000000 f"
1g"
0h"
b11111110 i"
b00000001 j"
b11111111 k"
0l"
1m"
1n"
0o"
0p"
1q"
0r"
1s"
0t"
1u"
1v"
0w"
0x"
1y"
0z"
1{"
1|"
0}"
0!#
1"#
0##
1$#
1%#
0&#
0'#
1(#
0)#
1*#
1+#
0,#
0-#
1.#
0/#
10#
11#
02#
03#
14#
05#
16#
17#
08#
09#
1:#
0;#
1<#
1=#
0>#
0?#
b11111110 @#
b00000001 A#
b11111111 B#
b11111111 C#
1D#
0E#
0F#
0G#
bUU H#
bUU I#
bUU J#
b00 K#
1L#
b00000000 M#
0N#
b00000000 O#
b00000000 P#
b00000000 Q#
b00000000 R#
b00000000 S#
b00000000 T#
b00000000 U#
b00000000 V#
b00000000 W#
0X#
b00000000 Y#
0Z#
0[#
b00000000 \#
b00000000 ]#
b00000000 ^#
0_#
0`#
0a#
0b#
0c#
0d#
0e#
0f#
0g#
0h#
0i#
0j#
0k#
0l#
0m#
0n#
0o#
0p#
0q#
0r#
0s#
0t#
0u#
0v#
0w#
0x#
0y#
0z#
0{#
0|#
0}#
0!$
0"$
0#$
0$$
0%$
0&$
0'$
0($
0)$
0*$
0+$
0,$
0-$
0.$
0/$
00$
01$
02$
b00000000 3$
b00000000 4$
b00000000 5$
b00000000 6$
07$
08$
09$
0:$
b00000000 ;$
b1 <$
U=$
b0 >$
0?$
0@$
b00 A$
b0000 B$
b00000000 C$
b000000000000000000000000UUUU D$
b0000000000000000000000000000 E$
0F$
b00000000100000000 G$
b00000000000000000 H$
1I$
#1000000
1$
1.
1/
bUUUUUUUU >
bUUUUUUUU A
bU C
bUUUUUUUU D
b0000000000000000000000000111 E
bUUUUUUUUU00000000 F
b000000000000000000000000UUUU G
bUUUU L
0P
1Q
1R
1S
0T
0U
0V
0W
0X
b01 Y
b11 Z
b00 [
b0111 \
bUUUUUUUU b
1k
1l
1m
0n
0o
0p
0q
0r
1t
0+"
b000001110 ,"
b000001110 /"
01"
04"
bUUUUUUUU 9"
bUUUUUUUU ;"
bUUUUUUUU I"
bUUUUUUUU K"
b01 H#
b11 I#
b00 J#
1N#
bUUUUUUUU W#
bUUUUUUUU Y#
bUUUUUUUU \#
U_#
Ua#
Uc#
Ue#
Ug#
Ui#
Uk#
Um#
Uo#
Uq#
Us#
Uu#
Uw#
Uy#
U{#
U}#
U"$
U$$
U&$
U($
U*$
U,$
U.$
U0$
U2$
bUUUUUUUU 3$
U8$
U9$
bUUUUUUUU ;$
bU <$
1=$
1?$
bUUUU B$
bUUUUUUUU C$
b0000000000000000000000000111 D$
b000000000000000000000000UUUU E$
1F$
bUUUUUUUUU00000000 G$
0I$
#2000000
b00010111 !
bUUUUUUUU "
0$
b00010111 (
bUUUUUUUU )
0.
0/
bUUUUUUUUU00000000 H
bUUUUUUUU M
bU O
1P
bUUUUUUUU e
0t
b00000111 '"
1+"
b000001110 -"
b000001110 0"
11"
b000001110 2"
14"
bUUUUUUUU 6"
bUUUUUUUU :"
bU E"
bUUUUUUUU U"
bUUUUUUUU W"
bUUUUUUUU Z"
bUUUUUUUU M#
0N#
0?$
0F$
bUUUUUUUUU00000000 H$
1I$
#3000000
1$
1.
1/
b00000111 >
b00000111 A
b0 C
b00000111 D
b00000111000000000 F
b0000000000000000000000000111 G
b0111 L
0P
1U
b01 [
b00000111 b
1o
1t
0+"
b000101110 ,"
b000101110 /"
01"
04"
b00000111 9"
b00000111 ;"
b00000111 I"
b00000111 K"
b01 J#
1N#
bUUUUUUUU R#
b00000111 W#
b00000111 Y#
b00000111 \#
0_#
1a#
1c#
1e#
1g#
1i#
1k#
1m#
1o#
1q#
0s#
0u#
0w#
0y#
0{#
0}#
0"$
0$$
0&$
0($
0*$
0,$
0.$
00$
02$
b00000111 3$
08$
09$
b00000111 ;$
b0 <$
1?$
b0111 B$
b00000111 C$
b0000000000000000000000000111 E$
1F$
b00000111000000000 G$
0I$
#4000000
b00100001 !
b00000111 "
0$
b00100001 (
b00000111 )
0.
0/
b00000111000000000 H
b00000111 M
b0 O
1P
b00000111 e
0t
b00010111 '"
b00000111 )"
1+"
b000101110 -"
b000001110 ."
b000101110 0"
11"
b000101110 2"
b000001110 3"
14"
b00000111 6"
b00000111 :"
b0 E"
b00000111 U"
b00000111 W"
b00000111 Z"
b00000111 M#
0N#
0?$
0F$
b00000111000000000 H$
1I$
#5000000
1$
1.
1/
b0000000000000000000000000001 E
0P
0R
0S
0U
1V
b00 Y
b01 Z
b10 [
b0001 \
0l
0m
0o
1p
1t
0+"
b001000010 ,"
b001000010 /"
01"
04"
b00 H#
b01 I#
b10 J#
1N#
b00000111 R#
0=$
1?$
b0000000000000000000000000001 D$
1F$
0I$
#6000000
b00110011 !
0$
b00110011 (
0.
0/
b00000111 8
b0000011100000000000000000001 E
1P
b01 c
0t
b01 &"
b00100001 '"
b00010111 )"
1+"
b001000010 -"
b000101110 ."
b001000010 0"
11"
b001000010 2"
b000101110 3"
14"
b01 K#
0N#
b00000111 O#
0?$
b0000011100000000000000000001 D$
0F$
1I$
#7000000
1$
1.
1/
b00000001 >
b00000001 A
b00000001 D
b0000011100000000000000000011 E
b00000001000000000 F
b0000011100000000000000000001 G
b00000111 J
b0001 L
0P
1R
1U
b11 Z
b11 [
b0011 \
b00000001 b
1l
1o
1t
0+"
b001100110 ,"
b001100110 /"
01"
04"
b00000001 9"
b00000001 ;"
b00000001 I"
b00000001 K"
b00000111 N"
b11 I#
b11 J#
1N#
b00000111 S#
b00000001 W#
b00000001 Y#
b00000001 \#
0g#
0i#
0k#
0m#
0o#
0q#
b00000001 3$
b00000001 ;$
1=$
1?$
b0001 B$
b00000001 C$
b0000011100000000000000000011 D$
b0000011100000000000000000001 E$
1F$
b00000001000000000 G$
0I$
#8000000
b11000110 !
b00000001 "
0$
b11000110 (
b00000001 )
0.
0/
b00000001000000000 H
b00000001 M
1P
b10 c
b00000001 e
0t
b10 &"
b00110011 '"
b00100001 )"
1+"
b001100110 -"
b001000010 ."
b001100110 0"
11"
b001100110 2"
b001000010 3"
14"
b00000001 6"
b00000001 :"
b00000001 U"
b00000001 W"
b00000001 Z"
b10 K#
b00000001 M#
0N#
0?$
0F$
b00000001000000000 H$
1I$
#9000000
1$
1.
1/
b00000011 >
b00000011 A
b00000011 D
b0000011100000000000001110110 E
b00000011000000000 F
b0000011100000000000000000011 G
b0011 L
0P
0Q
1S
0U
0V
1W
1X
b01 Y
b10 Z
b00 [
b0110 \
b00000111 ]
b00000011 b
0k
1m
0o
0p
1q
1r
1t
0+"
b110001100 ,"
b110001100 /"
01"
04"
b00000011 9"
b00000011 ;"
b00000011 I"
b00000011 K"
b01 H#
b10 I#
b00 J#
1N#
b00000111 Q#
b00000001 T#
b00000011 W#
b00000011 Y#
b00000011 \#
1g#
1i#
1k#
b00000011 3$
b00000011 ;$
1?$
b0011 B$
b00000011 C$
b0000011100000000000001110110 D$
b0000011100000000000000000011 E$
1F$
b00000011000000000 G$
0I$
#10000000
b00101111 !
b00000011 "
0$
b00101111 (
b00000011 )
0.
0/
02
13
04
17
b00000001 9
b00000000 >
b00000111 ?
b00000111 A
b0000011100000001000001110110 E
b00000111000000000 F
b00000011000000000 H
b00000011 M
1P
b00000111 a
b00000000 b
b11 c
b00000011 e
0t
0|
1}
0!"
1%"
b11 &"
b11000110 '"
b00110011 )"
1+"
b110001100 -"
b001100110 ."
b110001100 0"
11"
b110001100 2"
b001100110 3"
14"
b00000111 5"
b00000011 6"
b00000111 7"
b00000000 9"
b00000011 :"
b00000000 ;"
0@"
b00000000 K"
1L"
b00000111 O"
1P"
0T"
b00000011 U"
b00000011 W"
b00000011 Z"
b11 K#
b00000011 M#
0N#
b00000001 P#
b00000111 V#
b00000000 W#
b00000111 Y#
b00000111 \#
1`#
0a#
1f#
0g#
1l#
1o#
1q#
b00000111 3$
b00000111 ;$
0?$
b0000011100000001000001110110 D$
0F$
b00000111000000000 G$
b00000011000000000 H$
1I$
#11000000
1$
1.
1/
b11111001 :
b00000111 ;
b11111001 >
b11111001 @
b00000000 A
b1 C
b00000110 D
b0000011100000001000000011111 E
b00000000100000111 F
b0000011100000001000001110110 G
b00000111 I
b00000001 K
b0110 L
0P
1Q
1T
1V
0W
0X
b11 Y
b11 Z
b10 [
b1111 \
b00000001 ]
b11111001 b
b00000111 f
1k
1n
1p
0q
0r
1t
0+"
b001011110 ,"
b001011110 /"
01"
04"
b11111001 9"
b11111001 ;"
b00000111 ="
b00000001 >"
b00000111 ?"
b00000110 I"
b11111001 J"
b11111001 K"
b11111001 Q"
b00000001 R"
b11111001 S"
b00000111 Y"
b00000111 ["
b00000111 ]"
b11111001 ^"
b11111000 _"
b00000111 a"
b11111000 b"
b11111000 c"
b11111001 f"
0g"
b11111001 i"
b00000000 j"
b00000000 k"
1l"
0m"
1p"
0q"
1r"
0s"
0u"
0v"
0x"
0y"
0{"
0|"
0!#
0$#
1'#
0*#
1-#
00#
13#
06#
19#
0<#
1?#
b11111001 @#
b00000000 A#
b00000000 B#
b00000000 C#
1F#
b11 H#
b11 I#
b10 J#
1N#
b00000001 Q#
b00000011 U#
b11111001 W#
b00000000 Y#
1Z#
b11111110 \#
b00000001 ]#
b11111111 ^#
0_#
1a#
0c#
1d#
0e#
0g#
1h#
1i#
0j#
0k#
0m#
1n#
1o#
0p#
0q#
1s#
1t#
1u#
1y#
1z#
1{#
0}#
1"$
1#$
1$$
0&$
1($
1)$
1*$
0,$
1.$
1/$
10$
02$
b11111110 3$
b00000001 4$
b11111111 5$
b11111111 6$
18$
09$
b00000000 ;$
b1 <$
1?$
b0110 B$
b00000110 C$
b0000011100000001000000011111 D$
b0000011100000001000001110110 E$
1F$
b00000000100000111 G$
0I$
#12000000
b00111110 !
b00000000 "
0$
1%
1'
b00111110 (
b00000000 )
1+
1,
0.
0/
01
12
03
14
07
b00000011 8
b00000011 9
b11111111 :
b00000001 ;
b1 <
b1 =
b00000110 >
b00000000 ?
b00000001 @
b00000110 A
b0 C
b0000001100000011000000011111 E
b00000110000000111 F
b00000000100000111 H
b00000000 M
b00000111 N
b1 O
1P
1`
b00000000 a
b00000110 b
b00 c
b00000000 e
0i
1j
0t
1x
1y
0{
1|
0}
1!"
0""
0%"
b00 &"
b00101111 '"
b11000110 )"
1+"
b001011110 -"
b110001100 ."
b001011110 0"
11"
b001011110 2"
b110001100 3"
14"
b00000000 5"
b00000000 6"
b00000000 7"
b00000110 9"
b00000000 :"
b00000110 ;"
b00000001 ?"
1@"
b1 A"
b1 C"
b1 E"
b1 G"
0H"
b00000001 J"
b00000110 K"
0L"
b00000000 O"
0P"
b11111111 Q"
b00000001 S"
1T"
b00000000 U"
b00000111 V"
b00000000 W"
b00000000 Z"
b00000001 ]"
b11111111 ^"
b11111110 _"
b00000001 a"
b11111110 b"
b11111110 c"
b11111111 f"
b11111111 i"
1s"
1v"
1x"
1y"
1|"
1!#
b11111111 @#
b00 K#
0L#
b00000000 M#
0N#
b00000011 O#
b00000011 P#
b00000000 V#
b00000110 W#
b00000110 Y#
0Z#
b00000110 \#
b00000000 ]#
b00000000 ^#
0_#
0`#
0a#
0d#
0f#
1g#
0h#
1k#
0l#
1m#
0n#
1q#
0s#
0t#
0u#
0w#
0y#
0z#
0{#
0}#
0"$
0#$
0$$
0&$
0($
0)$
0*$
0,$
0.$
0/$
00$
02$
b00000110 3$
b00000000 4$
b00000000 5$
b00000000 6$
08$
09$
b00000110 ;$
b0 <$
b1 >$
0?$
b0000001100000011000000011111 D$
0F$
b00000110000000111 G$
b00000000100000111 H$
1I$
#13000000
1$
1.
1/
b11111101 :
b00000011 ;
b11111111 >
b00000011 @
b11111111 A
b11111111 D
b0000001100000011000000111110 E
b11111111000000001 F
b0000001100000011000000011111 G
b00000001 I
b00000011 J
b00000011 K
b1111 L
0P
0Q
1U
b10 Z
b11 [
b1110 \
b00000011 ]
b11111111 b
b00000001 f
0k
1o
1t
0+"
b001111100 ,"
b001111100 /"
01"
04"
b11111111 9"
b11111111 ;"
b00000001 ="
b00000011 >"
b00000011 ?"
b11111111 I"
b00000011 J"
b11111111 K"
b00000011 N"
b11111101 Q"
b00000011 R"
b00000011 S"
b00000001 Y"
b00000001 ["
b00000011 ]"
b11111101 ^"
b11111100 _"
b00000011 a"
b11111100 b"
b11111100 c"
b11111101 f"
b11111101 i"
0s"
0v"
0x"
b11111101 @#
b10 I#
b11 J#
1N#
b00000011 Q#
b11111111 W#
b11111111 Y#
b11111111 \#
1_#
1a#
1c#
1e#
1s#
1u#
1w#
1y#
1{#
1}#
1"$
1$$
1&$
1($
1*$
1,$
1.$
10$
12$
b11111111 3$
18$
19$
b11111111 ;$
1?$
b1111 B$
b11111111 C$
b0000001100000011000000111110 D$
b0000001100000011000000011111 E$
1F$
b11111111000000001 G$
0I$
#14000000
b11100000 !
b11111111 "
0$
0%
0'
b11100000 (
b11111111 )
0+
0,
0.
0/
16
b00000001 9
b0 <
b0 =
1B
b0000001100000001000000111110 E
b11111111000000001 H
b11111111 M
b00000001 N
b0 O
1P
0`
b10 c
b11111111 e
1i
0j
1s
0t
0x
0y
1""
1$"
b10 &"
b00111110 '"
b00101111 )"
1+"
b001111101 ,"
b001111100 -"
b001011110 ."
b001111101 /"
b001111100 0"
11"
b001111100 2"
b001011110 3"
14"
b11111111 6"
b11111111 :"
b0 A"
b0 C"
1D"
b0 E"
b0 G"
1H"
b11111111 U"
b00000001 V"
b11111111 W"
b11111111 Z"
b10 K#
b11111111 M#
0N#
b00000001 P#
b0 >$
0?$
1@$
b11 A$
b0000001100000001000000111110 D$
0F$
b11111111000000001 H$
1I$
#15000000
1$
1.
1/
b11111111 :
b00000001 ;
b11111110 >
b00000001 @
b11111110 A
b11111110 D
b0000001100000001000000010000 E
b11111110000000011 F
b0000001100000001000000111110 G
b00000011 I
b00000001 K
b1110 L
0P
0R
0S
0T
0U
1W
1X
b00 Y
b00 Z
b10 [
b0000 \
b00000001 ]
b11111110 b
b00000011 f
0l
0m
0n
0o
1q
1r
1t
0+"
b111000001 ,"
b111000001 /"
01"
04"
b11111110 9"
b11111110 ;"
b00000011 ="
b00000001 >"
b00000001 ?"
b11111110 I"
b00000001 J"
b11111110 K"
b11111111 Q"
b00000001 R"
b00000001 S"
b00000011 Y"
b00000011 ["
b00000001 ]"
b11111111 ^"
b11111110 _"
b00000001 a"
b11111110 b"
b11111110 c"
b11111111 f"
b11111111 i"
1s"
1v"
1x"
b11111111 @#
b00 H#
b00 I#
b10 J#
1N#
b00000001 Q#
b11111110 W#
b11111110 Y#
b11111110 \#
0a#
0c#
0e#
b11111110 3$
b11111110 ;$
0=$
1?$
b1110 B$
b11111110 C$
b0000001100000001000000010000 D$
b0000001100000001000000111110 E$
1F$
b11111110000000011 G$
0I$
