lab2/shift_reg_8.vcd
$date
  Sat Mar 24 18:05:58 2018
$end
$version
  GHDL v0
$end
$timescale
  1 fs
$end
$var reg 8 ! i[7:0] $end
$var reg 8 " o[7:0] $end
$var reg 1 # i_shift_in $end
$var reg 1 $ clk $end
$var reg 1 % enable $end
$var reg 2 & sel[1:0] $end
$scope module shift_reg_0 $end
$var reg 8 ' i[7:0] $end
$var reg 1 ( i_shift_in $end
$var reg 2 ) sel[1:0] $end
$var reg 1 * clock $end
$var reg 1 + enable $end
$var reg 8 , o[7:0] $end
$var reg 1 - sr0_shift_in $end
$var reg 1 . sr1_shift_in $end
$var reg 4 / o1[3:0] $end
$var reg 4 0 o2[3:0] $end
$scope module shift_reg_0 $end
$var reg 4 1 i[3:0] $end
$var reg 1 2 i_shift_in $end
$var reg 2 3 sel[1:0] $end
$var reg 1 4 clock $end
$var reg 1 5 enable $end
$var reg 4 6 o[3:0] $end
$var reg 4 7 storage[3:0] $end
$upscope $end
$scope module shift_reg_1 $end
$var reg 4 8 i[3:0] $end
$var reg 1 9 i_shift_in $end
$var reg 2 : sel[1:0] $end
$var reg 1 ; clock $end
$var reg 1 < enable $end
$var reg 4 = o[3:0] $end
$var reg 4 > storage[3:0] $end
$upscope $end
$upscope $end
$enddefinitions $end
#0
b01010101 !
b00000000 "
0#
0$
1%
b00 &
b01010101 '
0(
b00 )
0*
1+
b00000000 ,
0-
0.
b0000 /
b0000 0
b0101 1
02
b00 3
04
15
b0000 6
b0000 7
b0101 8
09
b00 :
0;
1<
b0000 =
b0000 >
#1000000
b01010101 "
1$
b11 &
b11 )
1*
b01010101 ,
b0101 /
b0101 0
b11 3
14
b0101 6
b0101 7
b11 :
1;
b0101 =
b0101 >
#2000000
1#
0$
b00 &
1(
b00 )
0*
12
b00 3
04
19
b00 :
0;
#3000000
1$
1*
14
1;
#4000000
0#
0$
b01 &
0(
b01 )
0*
02
b01 3
04
09
b01 :
0;
#5000000
b10101010 "
1$
1*
b10101010 ,
1.
b1010 /
b1010 0
14
b1010 6
b1010 7
1;
b1010 =
b1010 >
#6000000
1#
0$
1(
0*
1-
12
04
19
0;
#7000000
b01010101 "
1$
1*
b01010101 ,
0.
b0101 /
b0101 0
14
b0101 6
b0101 7
1;
b0101 =
b0101 >
#8000000
b10101010 !
0#
0$
b00 &
b10101010 '
0(
b00 )
0*
0-
b1010 1
02
b00 3
04
b1010 8
09
b00 :
0;
#9000000
b10101010 "
1$
b11 &
b11 )
1*
b10101010 ,
b1010 /
b1010 0
b11 3
14
b1010 6
b1010 7
b11 :
1;
b1010 =
b1010 >
#10000000
1#
0$
b00 &
1(
b00 )
0*
12
b00 3
04
19
b00 :
0;
#11000000
1$
1*
14
1;
#12000000
0#
0$
b10 &
0(
b10 )
0*
02
b10 3
04
09
b10 :
0;
#13000000
b01010101 "
1$
1*
b01010101 ,
1-
b0101 /
b0101 0
14
b0101 6
b0101 7
1;
b0101 =
b0101 >
#14000000
1#
0$
1(
0*
1.
12
04
19
0;
#15000000
b10101010 "
1$
1*
b10101010 ,
0-
b1010 /
b1010 0
14
b1010 6
b1010 7
1;
b1010 =
b1010 >
#16000000
b10111010 !
0#
0$
b00 &
b10111010 '
0(
b00 )
0*
0.
02
b00 3
04
b1011 8
09
b00 :
0;
#17000000
b10111010 "
1$
b11 &
b11 )
1*
b10111010 ,
b1011 0
b11 3
14
b11 :
1;
b1011 =
b1011 >
#18000000
1#
0$
b10 &
1(
b10 )
0*
1-
1.
12
b10 3
04
19
b10 :
0;
#19000000
b11011101 "
1$
1*
b11011101 ,
b1101 /
b1101 0
14
b1101 6
b1101 7
1;
b1101 =
b1101 >
