lab3/final/ctb.vcd
$date
  Sun Apr 29 23:59:15 2018
$end
$version
  GHDL v0
$end
$timescale
  1 fs
$end
$var reg 1 ! opsig0 $end
$var reg 1 " opsig1 $end
$var reg 1 # opsig6 $end
$var reg 1 $ opsig7 $end
$var reg 1 % skipsigi $end
$var reg 1 & wsig $end
$var reg 1 ' twosig $end
$var reg 1 ( immsig $end
$var reg 1 ) cmpsig $end
$var reg 1 * dispsig $end
$var reg 1 + skipsigo $end
$var reg 1 , lodsig $end
$scope module uut $end
$var reg 1 - op_0 $end
$var reg 1 . op_1 $end
$var reg 1 / skip $end
$var reg 1 0 op_6 $end
$var reg 1 1 op_7 $end
$var reg 1 2 write_en $end
$var reg 1 3 two_en $end
$var reg 1 4 imm_en $end
$var reg 1 5 cmp_en $end
$var reg 1 6 disp_en $end
$var reg 1 7 skp_pass $end
$var reg 1 8 lod $end
$upscope $end
$enddefinitions $end
#0
0!
0"
0#
0$
0%
1&
0'
1(
0)
0*
0+
1,
0-
0.
0/
00
01
12
03
14
05
06
07
18
#1000000
1%
0&
1+
1/
02
17
#2000000
1$
0%
1&
1'
0(
0+
0,
0/
11
12
13
04
07
08
#3000000
1%
0&
1+
1/
02
17
#4000000
1#
0$
0%
1&
0'
0+
0/
10
01
12
03
07
#5000000
1%
0&
1+
1/
02
17
#6000000
1$
0%
1*
0+
0/
11
16
07
#7000000
1%
0*
1+
1/
06
17
#8000000
1"
0#
0$
0%
1&
1(
0+
1,
1.
0/
00
01
12
14
07
18
#9000000
1%
0&
1+
1/
02
17
#10000000
1$
0%
1&
1'
0(
0+
0,
0/
11
12
13
04
07
08
#11000000
1%
0&
1+
1/
02
17
#12000000
1#
0$
0%
1&
0'
0+
0/
10
01
12
03
07
#13000000
1%
0&
1+
1/
02
17
#14000000
1$
0%
1)
0+
0/
11
15
07
#15000000
1%
1+
1/
17
#16000000
1!
0"
0#
0$
0%
1&
1(
0)
0+
1,
1-
0.
0/
00
01
12
14
05
07
18
#17000000
1%
0&
1+
1/
02
17
#18000000
1$
0%
1&
1'
0(
0+
0,
0/
11
12
13
04
07
08
#19000000
1%
0&
1+
1/
02
17
#20000000
1#
0$
0%
1&
0'
0+
0/
10
01
12
03
07
#21000000
1%
0&
1+
1/
02
17
#22000000
1$
0%
1)
0+
0/
11
15
07
#23000000
1%
1+
1/
17
#24000000
1"
0#
0$
0%
1&
1(
0)
0+
1,
1.
0/
00
01
12
14
05
07
18
#25000000
1%
0&
1+
1/
02
17
#26000000
1$
0%
1&
1'
0(
0+
0,
0/
11
12
13
04
07
08
#27000000
1%
0&
1+
1/
02
17
#28000000
1#
0$
0%
1&
0'
0+
0/
10
01
12
03
07
#29000000
1%
0&
1+
1/
02
17
#30000000
1$
0%
1*
0+
0/
11
16
07
#31000000
1%
0*
1+
1/
06
17
