lab3/final/tb.vcd
$date
  Mon Apr 30 11:12:33 2018
$end
$version
  GHDL v0
$end
$timescale
  1 fs
$end
$var reg 8 ! op[7:0] $end
$var reg 8 " data[7:0] $end
$var reg 1 # en $end
$var reg 7 $ control[6:0] $end
$var reg 1 % clock $end
$scope module c1 $end
$var reg 8 & opcode[7:0] $end
$var reg 8 ' dataout[7:0] $end
$var reg 1 ( dispen $end
$var reg 1 ) clk $end
$var reg 1 * clksig $end
$var reg 7 + controlsig[6:0] $end
$var reg 1 , cregmem $end
$var reg 1 - ctwosum $end
$var reg 1 . cimmmux $end
$var reg 1 / ccompmux $end
$var reg 1 0 cdispen $end
$var reg 1 1 cskipmux $end
$var reg 1 2 clodmux $end
$var reg 8 3 regdatasigone[7:0] $end
$var reg 8 4 regdatasigtwo[7:0] $end
$var reg 8 5 twoscompsig[7:0] $end
$var reg 1 6 skipmuxsig[0:0] $end
$var reg 1 7 compmuxsig[0:0] $end
$var reg 8 8 immmuxsig[7:0] $end
$var reg 8 9 lodmuxsig[7:0] $end
$var reg 8 : twosmuxsig[7:0] $end
$var reg 8 ; alusig[7:0] $end
$var reg 1 < skipshifttocontrolsig $end
$var reg 1 = zerosig[0:0] $end
$var reg 8 > signextendsig[7:0] $end
$var reg 1 ? op0 $end
$var reg 1 @ op1 $end
$var reg 1 A op6 $end
$var reg 1 B op7 $end
$var reg 2 C r1[1:0] $end
$var reg 2 D r2[1:0] $end
$var reg 2 E rd[1:0] $end
$var reg 4 F imm[3:0] $end
$var reg 8 G doutsig[7:0] $end
$scope module controlmain $end
$var reg 1 H op_0 $end
$var reg 1 I op_1 $end
$var reg 1 J skip $end
$var reg 1 K op_6 $end
$var reg 1 L op_7 $end
$var reg 1 M write_en $end
$var reg 1 N two_en $end
$var reg 1 O imm_en $end
$var reg 1 P cmp_en $end
$var reg 1 Q disp_en $end
$var reg 1 R skp_pass $end
$var reg 1 S lod $end
$upscope $end
$scope module skipmux $end
$var reg 1 T in1[0:0] $end
$var reg 1 U in2[0:0] $end
$var reg 1 V out1[0:0] $end
$var reg 1 W sel $end
$upscope $end
$scope module compmux $end
$var reg 1 X in1[0:0] $end
$var reg 1 Y in2[0:0] $end
$var reg 1 Z out1[0:0] $end
$var reg 1 [ sel $end
$upscope $end
$scope module immmux $end
$var reg 8 \ in1[7:0] $end
$var reg 8 ] in2[7:0] $end
$var reg 8 ^ out1[7:0] $end
$var reg 1 _ sel $end
$upscope $end
$scope module lodmux $end
$var reg 8 ` in1[7:0] $end
$var reg 8 a in2[7:0] $end
$var reg 8 b out1[7:0] $end
$var reg 1 c sel $end
$upscope $end
$scope module twosmux $end
$var reg 8 d in1[7:0] $end
$var reg 8 e in2[7:0] $end
$var reg 8 f out1[7:0] $end
$var reg 1 g sel $end
$upscope $end
$scope module twoscomp $end
$var reg 8 h input[7:0] $end
$var reg 8 i output[7:0] $end
$var reg 8 j fliptoadd[7:0] $end
$var reg 8 k one[7:0] $end
$scope module inst_flip $end
$var reg 8 l in1[7:0] $end
$var reg 8 m out1[7:0] $end
$upscope $end
$scope module inst_adder $end
$var reg 8 n a[7:0] $end
$var reg 8 o b[7:0] $end
$var reg 1 p cin $end
$var reg 8 q sum[7:0] $end
$var reg 1 r carryout $end
$var reg 1 s underflow $end
$var reg 8 t prop[7:0] $end
$var reg 8 u gen[7:0] $end
$var reg 8 v c_int[7:0] $end
$var reg 1 w slicesevensumout $end
$scope module inst_cla_slice0 $end
$var reg 1 x a $end
$var reg 1 y b $end
$var reg 1 z cin $end
$var reg 1 { p $end
$var reg 1 | g $end
$var reg 1 } sum_out $end
$upscope $end
$scope module inst_cla_slice1 $end
$var reg 1 !" a $end
$var reg 1 "" b $end
$var reg 1 #" cin $end
$var reg 1 $" p $end
$var reg 1 %" g $end
$var reg 1 &" sum_out $end
$upscope $end
$scope module inst_cla_slice2 $end
$var reg 1 '" a $end
$var reg 1 (" b $end
$var reg 1 )" cin $end
$var reg 1 *" p $end
$var reg 1 +" g $end
$var reg 1 ," sum_out $end
$upscope $end
$scope module inst_cla_slice3 $end
$var reg 1 -" a $end
$var reg 1 ." b $end
$var reg 1 /" cin $end
$var reg 1 0" p $end
$var reg 1 1" g $end
$var reg 1 2" sum_out $end
$upscope $end
$scope module inst_cla_slice4 $end
$var reg 1 3" a $end
$var reg 1 4" b $end
$var reg 1 5" cin $end
$var reg 1 6" p $end
$var reg 1 7" g $end
$var reg 1 8" sum_out $end
$upscope $end
$scope module inst_cla_slice5 $end
$var reg 1 9" a $end
$var reg 1 :" b $end
$var reg 1 ;" cin $end
$var reg 1 <" p $end
$var reg 1 =" g $end
$var reg 1 >" sum_out $end
$upscope $end
$scope module inst_cla_slice6 $end
$var reg 1 ?" a $end
$var reg 1 @" b $end
$var reg 1 A" cin $end
$var reg 1 B" p $end
$var reg 1 C" g $end
$var reg 1 D" sum_out $end
$upscope $end
$scope module inst_cla_slice7 $end
$var reg 1 E" a $end
$var reg 1 F" b $end
$var reg 1 G" cin $end
$var reg 1 H" p $end
$var reg 1 I" g $end
$var reg 1 J" sum_out $end
$upscope $end
$scope module inst_cla_block $end
$var reg 8 K" p[7:0] $end
$var reg 8 L" g[7:0] $end
$var reg 8 M" cout[7:0] $end
$var reg 8 N" cint[7:0] $end
$upscope $end
$scope module inst_uf $end
$var reg 1 O" signa $end
$var reg 1 P" signb $end
$var reg 1 Q" signr $end
$var reg 1 R" uf $end
$upscope $end
$upscope $end
$upscope $end
$scope module regmem0 $end
$var reg 2 S" reg1[1:0] $end
$var reg 2 T" reg2[1:0] $end
$var reg 2 U" dstreg[1:0] $end
$var reg 1 V" writeen $end
$var reg 8 W" writedata[7:0] $end
$var reg 1 X" clock $end
$var reg 8 Y" reg1data[7:0] $end
$var reg 8 Z" reg2data[7:0] $end
$var reg 8 [" rddata[7:0] $end
$var reg 8 \" r0[7:0] $end
$var reg 8 ]" r1[7:0] $end
$var reg 8 ^" r2[7:0] $end
$var reg 8 _" r3[7:0] $end
$upscope $end
$scope module alu $end
$var reg 8 `" a[7:0] $end
$var reg 8 a" b[7:0] $end
$var reg 1 b" cin $end
$var reg 8 c" sum[7:0] $end
$var reg 1 d" carryout $end
$var reg 1 e" underflow $end
$var reg 8 f" prop[7:0] $end
$var reg 8 g" gen[7:0] $end
$var reg 8 h" c_int[7:0] $end
$var reg 1 i" slicesevensumout $end
$scope module inst_cla_slice0 $end
$var reg 1 j" a $end
$var reg 1 k" b $end
$var reg 1 l" cin $end
$var reg 1 m" p $end
$var reg 1 n" g $end
$var reg 1 o" sum_out $end
$upscope $end
$scope module inst_cla_slice1 $end
$var reg 1 p" a $end
$var reg 1 q" b $end
$var reg 1 r" cin $end
$var reg 1 s" p $end
$var reg 1 t" g $end
$var reg 1 u" sum_out $end
$upscope $end
$scope module inst_cla_slice2 $end
$var reg 1 v" a $end
$var reg 1 w" b $end
$var reg 1 x" cin $end
$var reg 1 y" p $end
$var reg 1 z" g $end
$var reg 1 {" sum_out $end
$upscope $end
$scope module inst_cla_slice3 $end
$var reg 1 |" a $end
$var reg 1 }" b $end
$var reg 1 !# cin $end
$var reg 1 "# p $end
$var reg 1 ## g $end
$var reg 1 $# sum_out $end
$upscope $end
$scope module inst_cla_slice4 $end
$var reg 1 %# a $end
$var reg 1 &# b $end
$var reg 1 '# cin $end
$var reg 1 (# p $end
$var reg 1 )# g $end
$var reg 1 *# sum_out $end
$upscope $end
$scope module inst_cla_slice5 $end
$var reg 1 +# a $end
$var reg 1 ,# b $end
$var reg 1 -# cin $end
$var reg 1 .# p $end
$var reg 1 /# g $end
$var reg 1 0# sum_out $end
$upscope $end
$scope module inst_cla_slice6 $end
$var reg 1 1# a $end
$var reg 1 2# b $end
$var reg 1 3# cin $end
$var reg 1 4# p $end
$var reg 1 5# g $end
$var reg 1 6# sum_out $end
$upscope $end
$scope module inst_cla_slice7 $end
$var reg 1 7# a $end
$var reg 1 8# b $end
$var reg 1 9# cin $end
$var reg 1 :# p $end
$var reg 1 ;# g $end
$var reg 1 <# sum_out $end
$upscope $end
$scope module inst_cla_block $end
$var reg 8 =# p[7:0] $end
$var reg 8 ># g[7:0] $end
$var reg 8 ?# cout[7:0] $end
$var reg 8 @# cint[7:0] $end
$upscope $end
$scope module inst_uf $end
$var reg 1 A# signa $end
$var reg 1 B# signb $end
$var reg 1 C# signr $end
$var reg 1 D# uf $end
$upscope $end
$upscope $end
$scope module zerocheck0 $end
$var reg 8 E# input[7:0] $end
$var reg 1 F# output[0:0] $end
$upscope $end
$scope module sreg0 $end
$var reg 1 G# i_shift_in $end
$var reg 1 H# sel[0:0] $end
$var reg 1 I# clock $end
$var reg 1 J# o $end
$var reg 3 K# storage[2:0] $end
$upscope $end
$scope module signext $end
$var reg 4 L# input[3:0] $end
$var reg 8 M# output[7:0] $end
$upscope $end
$upscope $end
$enddefinitions $end
#0
b00010111 !
b00000000 "
0#
bUUUUUUU $
0%
b00010111 &
b00000000 '
0(
0)
0*
bUUUUUUU +
1,
0-
1.
0/
00
01
12
b00000000 3
b00000000 4
b00000000 5
b0 6
b1 7
b00000000 8
b00000000 9
b00000000 :
b00000000 ;
0<
b1 =
b00000111 >
1?
1@
0A
0B
b11 C
b01 D
b01 E
b0111 F
b00000000 G
1H
1I
0J
0K
0L
1M
0N
1O
0P
0Q
0R
1S
b0 T
b1 U
b0 V
0W
b1 X
b0 Y
b1 Z
0[
b00000111 \
b00000000 ]
b00000000 ^
1_
b00000000 `
b00000000 a
b00000000 b
1c
b00000000 d
b00000000 e
b00000000 f
0g
b00000000 h
b00000000 i
b11111111 j
b00000001 k
b00000000 l
b11111111 m
b11111111 n
b00000001 o
0p
b00000000 q
1r
0s
b11111110 t
b00000001 u
b11111111 v
0w
1x
1y
0z
0{
1|
0}
1!"
0""
1#"
1$"
0%"
0&"
1'"
0("
1)"
1*"
0+"
0,"
1-"
0."
1/"
10"
01"
02"
13"
04"
15"
16"
07"
08"
19"
0:"
1;"
1<"
0="
0>"
1?"
0@"
1A"
1B"
0C"
0D"
1E"
0F"
1G"
1H"
0I"
0J"
b11111110 K"
b00000001 L"
b11111111 M"
b11111111 N"
1O"
0P"
0Q"
0R"
b11 S"
b01 T"
b01 U"
1V"
b00000000 W"
0X"
b00000000 Y"
b00000000 Z"
b00000000 ["
b00000000 \"
b00000000 ]"
b00000000 ^"
b00000000 _"
b00000000 `"
b00000000 a"
0b"
b00000000 c"
0d"
0e"
b00000000 f"
b00000000 g"
b00000000 h"
0i"
0j"
0k"
0l"
0m"
0n"
0o"
0p"
0q"
0r"
0s"
0t"
0u"
0v"
0w"
0x"
0y"
0z"
0{"
0|"
0}"
0!#
0"#
0##
0$#
0%#
0&#
0'#
0(#
0)#
0*#
0+#
0,#
0-#
0.#
0/#
00#
01#
02#
03#
04#
05#
06#
07#
08#
09#
0:#
0;#
0<#
b00000000 =#
b00000000 >#
b00000000 ?#
b00000000 @#
0A#
0B#
0C#
0D#
b00000000 E#
b1 F#
1G#
b0 H#
0I#
0J#
b000 K#
b0111 L#
b00000111 M#
#1000000
1%
1)
1*
1X"
1I#
#2000000
b00101111 !
0%
b00101111 &
0)
0*
b11111111 >
b11 D
b10 E
b1111 F
b11111111 \
b11 T"
b10 U"
0X"
0I#
b1111 L#
b11111111 M#
#3000000
1%
1)
1*
1X"
1I#
#4000000
b11100000 !
1#
0%
b11100000 &
1(
0)
0*
0,
0.
10
02
b00000000 >
0?
0@
1A
1B
b00 C
b00 D
b0000 F
0H
0I
1K
1L
0M
0O
1Q
0S
b00000000 \
0_
0c
b00 S"
b00 T"
0V"
0X"
0G#
0I#
b0000 L#
b00000000 M#
#5000000
1%
1)
1*
1X"
1I#
#6000000
b01000110 !
0#
0%
b01000110 &
0(
0)
0*
1,
00
b0 7
b00000110 8
b00000110 ;
b0 =
b00000110 >
1@
0B
b10 C
b01 D
b00 E
b0110 F
1I
0L
1M
0Q
b0 U
b0 X
b0 Z
b00000110 \
b00000110 ^
b10 S"
b01 T"
b00 U"
1V"
b00000110 W"
0X"
b00000110 a"
b00000110 c"
b00000110 f"
1q"
1s"
1u"
1w"
1y"
1{"
b00000110 =#
b00000110 E#
b0 F#
1G#
0I#
b0110 L#
b00000110 M#
#7000000
1%
1)
1*
1X"
1I#
#8000000
b01000100 !
0%
b01000100 &
0)
0*
b00000100 8
b00000100 ;
b00000100 >
0@
b00 C
b0100 F
0I
b00000100 \
b00000100 ^
b00 S"
b00000100 W"
0X"
b00000110 \"
b00000100 a"
b00000100 c"
b00000100 f"
0q"
0s"
0u"
b00000100 =#
b00000100 E#
0G#
0I#
b0100 L#
b00000100 M#
#9000000
b00000110 "
1%
b00000110 '
1)
1*
b00000110 3
b00000110 G
b00000110 a
1X"
b00000110 Y"
b00000110 ["
1I#
#10000000
0%
0)
0*
0X"
b00000100 \"
0I#
#11000000
b00000100 "
1%
b00000100 '
1)
1*
b00000100 3
b00000100 G
b00000100 a
1X"
b00000100 Y"
b00000100 ["
1I#
#12000000
0%
0)
0*
0X"
0I#
#13000000
1%
1)
1*
1X"
1I#
#14000000
0%
0)
0*
0X"
0I#
#15000000
1%
1)
1*
1X"
1I#
#16000000
0%
0)
0*
0X"
0I#
#17000000
1%
1)
1*
1X"
1I#
#18000000
0%
0)
0*
0X"
0I#
#19000000
1%
1)
1*
1X"
1I#
#20000000
0%
0)
0*
0X"
0I#
#21000000
1%
1)
1*
1X"
1I#
#22000000
0%
0)
0*
0X"
0I#
#23000000
1%
1)
1*
1X"
1I#
#24000000
0%
0)
0*
0X"
0I#
#25000000
1%
1)
1*
1X"
1I#
#26000000
0%
0)
0*
0X"
0I#
#27000000
1%
1)
1*
1X"
1I#
#28000000
0%
0)
0*
0X"
0I#
#29000000
1%
1)
1*
1X"
1I#
#30000000
0%
0)
0*
0X"
0I#
#31000000
1%
1)
1*
1X"
1I#
#32000000
0%
0)
0*
0X"
0I#
#33000000
1%
1)
1*
1X"
1I#
#34000000
0%
0)
0*
0X"
0I#
#35000000
1%
1)
1*
1X"
1I#
#36000000
0%
0)
0*
0X"
0I#
#37000000
1%
1)
1*
1X"
1I#
#38000000
0%
0)
0*
0X"
0I#
#39000000
1%
1)
1*
1X"
1I#
#40000000
b11000000 !
1#
0%
b11000000 &
1(
0)
0*
0,
10
b1 7
b00000000 8
b00000000 ;
b1 =
b00000000 >
1B
b00 D
b0000 F
1L
0M
1Q
b1 U
b1 X
b1 Z
b00000000 \
b00000000 ^
b00 T"
0V"
b00000000 W"
0X"
b00000000 a"
b00000000 c"
b00000000 f"
0w"
0y"
0{"
b00000000 =#
b00000000 E#
b1 F#
0I#
b0000 L#
b00000000 M#
#41000000
1%
1)
1*
b00000100 4
b11111100 5
b11111100 :
b11111100 ]
b11111100 d
b00000100 e
b11111100 f
b00000100 h
b11111100 i
b11111011 j
b00000100 l
b11111011 m
b11111011 n
b11111100 q
0r
b11111010 t
b00000011 v
1w
0'"
0*"
1,"
0/"
12"
05"
18"
0;"
1>"
0A"
1D"
0G"
1J"
b11111010 K"
b00000011 M"
b00000011 N"
1Q"
1X"
b00000100 Z"
1I#
#42000000
b01000100 !
0#
0%
b01000100 &
0(
0)
0*
1,
00
b0 7
b00000100 8
b00000100 ;
b0 =
b00000100 >
0B
b01 D
b0100 F
0L
1M
0Q
b0 U
b0 X
b0 Z
b00000100 \
b00000100 ^
b01 T"
1V"
b00000100 W"
0X"
b00000100 a"
b00000100 c"
b00000100 f"
1w"
1y"
1{"
b00000100 =#
b00000100 E#
b0 F#
0I#
b0100 L#
b00000100 M#
#43000000
1%
1)
1*
b00000000 4
b00000000 5
b00000000 :
b00000000 ]
b00000000 d
b00000000 e
b00000000 f
b00000000 h
b00000000 i
b11111111 j
b00000000 l
b11111111 m
b11111111 n
b00000000 q
1r
b11111110 t
b11111111 v
0w
1'"
1*"
0,"
1/"
02"
15"
08"
1;"
0>"
1A"
0D"
1G"
0J"
b11111110 K"
b11111111 M"
b11111111 N"
0Q"
1X"
b00000000 Z"
1I#
#44000000
b11000000 !
1#
0%
b11000000 &
1(
0)
0*
0,
10
b1 7
b00000000 8
b00000000 ;
b1 =
b00000000 >
1B
b00 D
b0000 F
1L
0M
1Q
b1 U
b1 X
b1 Z
b00000000 \
b00000000 ^
b00 T"
0V"
b00000000 W"
0X"
b00000000 a"
b00000000 c"
b00000000 f"
0w"
0y"
0{"
b00000000 =#
b00000000 E#
b1 F#
0I#
b0000 L#
b00000000 M#
